src/test.vcd
$date
	Mon Jan 13 15:55:45 2025
$end
$version
	Icarus Verilog
$end
$timescale
	1ps
$end
$scope module processor_tb $end
$var wire 1 ! a_enable $end
$var wire 1 " d_enable $end
$var wire 32 # data [31:0] $end
$var wire 1 $ enable_inc $end
$var wire 1 % enable_pc $end
$var wire 1 & f_enable $end
$var wire 1 ' m1_enable $end
$var wire 1 ( m2_enable $end
$var wire 1 ) m3_enable $end
$var wire 1 * m4_enable $end
$var wire 1 + m5_enable $end
$var wire 1 , reset_pc $end
$var wire 1 - t_nop $end
$var wire 1 . t_w $end
$var wire 2 / stld_size [1:0] $end
$var wire 5 0 m5_tail [4:0] $end
$var wire 32 1 m5_res [31:0] $end
$var wire 5 2 m5_r_d_a [4:0] $end
$var wire 32 3 m5_pc [31:0] $end
$var wire 1 4 m5_nop $end
$var wire 5 5 m4_tail [4:0] $end
$var wire 5 6 m4_r_d_a [4:0] $end
$var wire 32 7 m4_r_b [31:0] $end
$var wire 32 8 m4_r_a [31:0] $end
$var wire 32 9 m4_pc [31:0] $end
$var wire 1 : m4_nop $end
$var wire 5 ; m3_tail [4:0] $end
$var wire 5 < m3_r_d_a [4:0] $end
$var wire 32 = m3_r_b [31:0] $end
$var wire 32 > m3_r_a [31:0] $end
$var wire 32 ? m3_pc [31:0] $end
$var wire 1 @ m3_nop $end
$var wire 5 A m2_tail [4:0] $end
$var wire 5 B m2_r_d_a [4:0] $end
$var wire 32 C m2_r_b [31:0] $end
$var wire 32 D m2_r_a [31:0] $end
$var wire 32 E m2_pc [31:0] $end
$var wire 1 F m2_nop $end
$var wire 5 G m1_tail [4:0] $end
$var wire 5 H m1_r_d_a [4:0] $end
$var wire 32 I m1_r_b [31:0] $end
$var wire 32 J m1_r_a [31:0] $end
$var wire 32 K m1_pc [31:0] $end
$var wire 1 L m1_nop $end
$var wire 1 M f_wait_for_cache $end
$var wire 5 N f_tail_ctr [4:0] $end
$var wire 5 O f_tail [4:0] $end
$var wire 32 P f_pc [31:0] $end
$var wire 1 Q f_nop $end
$var wire 32 R f_instr [31:0] $end
$var wire 5 S f_exception [4:0] $end
$var wire 1 T d_w $end
$var wire 5 U d_tail [4:0] $end
$var wire 32 V d_r_d_a_val [31:0] $end
$var wire 5 W d_r_d_a [4:0] $end
$var wire 32 X d_r_b [31:0] $end
$var wire 32 Y d_r_a [31:0] $end
$var wire 32 Z d_pc [31:0] $end
$var wire 1 [ d_nop $end
$var wire 1 \ d_is_store $end
$var wire 1 ] d_is_load $end
$var wire 7 ^ d_func [6:0] $end
$var wire 5 _ d_exception [4:0] $end
$var wire 1 ` clk $end
$var wire 1 a c_w $end
$var wire 1 b c_swap_rm4 $end
$var wire 32 c c_res [31:0] $end
$var wire 5 d c_r_d_a [4:0] $end
$var wire 32 e c_pc [31:0] $end
$var wire 1 f c_nop $end
$var wire 5 g c_exception [4:0] $end
$var wire 1 h a_w $end
$var wire 5 i a_tail [4:0] $end
$var wire 1 j a_swap_rm4 $end
$var wire 2 k a_stld_size [1:0] $end
$var wire 32 l a_res [31:0] $end
$var wire 32 m a_r_d_a_val [31:0] $end
$var wire 5 n a_r_d_a [4:0] $end
$var wire 32 o a_pc [31:0] $end
$var wire 1 p a_nop $end
$var wire 1 q a_jump $end
$var wire 1 r a_is_store $end
$var wire 1 s a_is_load $end
$var wire 5 t a_exception [4:0] $end
$var reg 128 u __dmem_in_d_buffer [127:0] $end
$var reg 33 v __dmem_r_a_buffer [32:0] $end
$var reg 33 w __dmem_w_a_buffer [32:0] $end
$var reg 1 x __dwrite_or_read $end
$var reg 33 y __imem_a_buffer [32:0] $end
$var reg 1 z __iwrite_or_read $end
$var reg 1 { a_jump_in $end
$var reg 1 | a_nop_in $end
$var reg 32 } a_res_in [31:0] $end
$var reg 1 ~ a_swap_rm4_in $end
$var reg 1 !" a_wait $end
$var reg 1 "" c_enable $end
$var reg 5 #" c_exception_in [4:0] $end
$var reg 1 $" c_nop_in $end
$var reg 32 %" c_res_in [31:0] $end
$var reg 1 &" c_wait $end
$var reg 1 '" cache_finished $end
$var reg 32 (" d_addr [31:0] $end
$var reg 5 )" d_exception_in [4:0] $end
$var reg 7 *" d_func_in [6:0] $end
$var reg 1 +" d_is_load_in $end
$var reg 1 ," d_is_store_in $end
$var reg 1 -" d_nop_in $end
$var reg 32 ." d_r_a_in [31:0] $end
$var reg 32 /" d_r_b_in [31:0] $end
$var reg 5 0" d_r_d_a_in [4:0] $end
$var reg 32 1" d_r_d_a_val_in [31:0] $end
$var reg 1 2" d_w_in $end
$var reg 1 3" d_wait $end
$var reg 1 4" dcache_read $end
$var reg 1 5" dhit $end
$var reg 1 6" dmem_finished $end
$var reg 128 7" dmem_in_data [127:0] $end
$var reg 33 8" dmem_r_address [32:0] $end
$var reg 1 9" dmem_read $end
$var reg 33 :" dmem_w_address [32:0] $end
$var reg 1 ;" dmem_write $end
$var reg 32 <" drm0 [31:0] $end
$var reg 32 =" drm1 [31:0] $end
$var reg 1 >" dtlb_miss $end
$var reg 1 ?" dtlb_read $end
$var reg 6 @" dtlb_tail [5:0] $end
$var reg 32 A" dtlb_va [31:0] $end
$var reg 20 B" dtlb_valids [19:0] $end
$var reg 1 C" dtlb_wait $end
$var reg 5 D" f_exception_in [4:0] $end
$var reg 32 E" f_instr_in [31:0] $end
$var reg 1 F" f_nop_in $end
$var reg 1 G" f_rob_full $end
$var reg 5 H" f_tail_ctr_in [4:0] $end
$var reg 1 I" f_wait $end
$var reg 1 J" f_wait_for_cache_in $end
$var reg 1 K" hit $end
$var reg 32 L" iaddr [31:0] $end
$var reg 1 M" icache_read $end
$var reg 1 N" icache_write $end
$var reg 33 O" imem_address [32:0] $end
$var reg 1 P" imem_finished $end
$var reg 1 Q" imem_read $end
$var reg 32 R" in_data [31:0] $end
$var reg 33 S" irm0 [32:0] $end
$var reg 33 T" irm1 [32:0] $end
$var reg 1 U" itlb_hit $end
$var reg 1 V" itlb_miss $end
$var reg 1 W" itlb_read $end
$var reg 6 X" itlb_tail [5:0] $end
$var reg 32 Y" itlb_va [31:0] $end
$var reg 20 Z" itlb_valids [19:0] $end
$var reg 1 [" itlb_wait $end
$var reg 1 \" m1_nop_in $end
$var reg 32 ]" m1_pc_in [31:0] $end
$var reg 32 ^" m1_r_a_in [31:0] $end
$var reg 32 _" m1_r_b_in [31:0] $end
$var reg 1 `" m1_wait $end
$var reg 1 a" m2_wait $end
$var reg 1 b" m3_wait $end
$var reg 1 c" m4_wait $end
$var reg 32 d" m5_res_in [31:0] $end
$var reg 1 e" m5_wait $end
$var reg 1 f" mem_reset $end
$var reg 128 g" out_dmem [127:0] $end
$var reg 128 h" out_imem [127:0] $end
$var reg 32 i" page_table_root_addr [31:0] $end
$var reg 1 j" page_walking_dtlb $end
$var reg 1 k" page_walking_itlb $end
$var reg 32 l" pc [31:0] $end
$var reg 32 m" pc_in [31:0] $end
$var reg 1 n" pc_jump $end
$var reg 1 o" reset $end
$var reg 1 p" rgs_enable $end
$var reg 32 q" rm0 [31:0] $end
$var reg 32 r" rm1 [31:0] $end
$var reg 1 s" rm4 $end
$var reg 5 t" rob_head [4:0] $end
$var reg 2 u" stld_size_in [1:0] $end
$var reg 20 v" va_to_pa [19:0] $end
$var reg 1 w" was_reseted $end
$var integer 32 x" cycle_num [31:0] $end
$var integer 32 y" dread_cycles [31:0] $end
$var integer 32 z" dwrite_cycles [31:0] $end
$var integer 32 {" i [31:0] $end
$var integer 32 |" iwait_cycles [31:0] $end
$scope function calc_func $end
$var reg 7 }" op [6:0] $end
$upscope $end
$scope function needs_write $end
$var reg 6 ~" op [5:0] $end
$upscope $end
$scope function try_bypass $end
$var reg 5 !# adr [4:0] $end
$upscope $end
$scope module clk_gen $end
$var reg 1 ` clk $end
$upscope $end
$scope module f_instr_ff $end
$var wire 1 ` clk $end
$var wire 1 & enable $end
$var wire 32 "# in [31:0] $end
$var wire 1 o" reset $end
$var reg 32 ## out [31:0] $end
$upscope $end
$scope module ff_a_exception $end
$var wire 1 ` clk $end
$var wire 1 ! enable $end
$var wire 1 o" reset $end
$var wire 5 $# in [4:0] $end
$var reg 5 %# out [4:0] $end
$upscope $end
$scope module ff_a_is_load $end
$var wire 1 ` clk $end
$var wire 1 ! enable $end
$var wire 1 o" reset $end
$var wire 1 ] in $end
$var reg 1 s out $end
$upscope $end
$scope module ff_a_is_store $end
$var wire 1 ` clk $end
$var wire 1 ! enable $end
$var wire 1 o" reset $end
$var wire 1 \ in $end
$var reg 1 r out $end
$upscope $end
$scope module ff_a_jump $end
$var wire 1 ` clk $end
$var wire 1 ! enable $end
$var wire 1 { in $end
$var wire 1 o" reset $end
$var reg 1 q out $end
$upscope $end
$scope module ff_a_nop $end
$var wire 1 ` clk $end
$var wire 1 ! enable $end
$var wire 1 &# in $end
$var wire 1 o" reset $end
$var reg 1 p out $end
$upscope $end
$scope module ff_a_pc $end
$var wire 1 ` clk $end
$var wire 1 ! enable $end
$var wire 1 o" reset $end
$var wire 32 '# in [31:0] $end
$var reg 32 (# out [31:0] $end
$upscope $end
$scope module ff_a_r_d_a $end
$var wire 1 ` clk $end
$var wire 1 ! enable $end
$var wire 1 o" reset $end
$var wire 5 )# in [4:0] $end
$var reg 5 *# out [4:0] $end
$upscope $end
$scope module ff_a_r_d_a_val $end
$var wire 1 ` clk $end
$var wire 1 ! enable $end
$var wire 1 o" reset $end
$var wire 32 +# in [31:0] $end
$var reg 32 ,# out [31:0] $end
$upscope $end
$scope module ff_a_res $end
$var wire 1 ` clk $end
$var wire 1 ! enable $end
$var wire 32 -# in [31:0] $end
$var wire 1 o" reset $end
$var reg 32 .# out [31:0] $end
$upscope $end
$scope module ff_a_stld_size $end
$var wire 1 ` clk $end
$var wire 1 " enable $end
$var wire 1 o" reset $end
$var wire 2 /# in [1:0] $end
$var reg 2 0# out [1:0] $end
$upscope $end
$scope module ff_a_swap_rm4 $end
$var wire 1 ` clk $end
$var wire 1 ! enable $end
$var wire 1 ~ in $end
$var wire 1 o" reset $end
$var reg 1 j out $end
$upscope $end
$scope module ff_a_tail $end
$var wire 1 ` clk $end
$var wire 1 ! enable $end
$var wire 1 o" reset $end
$var wire 5 1# in [4:0] $end
$var reg 5 2# out [4:0] $end
$upscope $end
$scope module ff_a_w $end
$var wire 1 ` clk $end
$var wire 1 ! enable $end
$var wire 1 o" reset $end
$var wire 1 T in $end
$var reg 1 h out $end
$upscope $end
$scope module ff_c_exception $end
$var wire 1 ` clk $end
$var wire 1 "" enable $end
$var wire 5 3# in [4:0] $end
$var wire 1 o" reset $end
$var reg 5 4# out [4:0] $end
$upscope $end
$scope module ff_c_nop $end
$var wire 1 ` clk $end
$var wire 1 "" enable $end
$var wire 1 5# in $end
$var wire 1 o" reset $end
$var reg 1 f out $end
$upscope $end
$scope module ff_c_pc $end
$var wire 1 ` clk $end
$var wire 1 "" enable $end
$var wire 32 6# in [31:0] $end
$var wire 1 o" reset $end
$var reg 32 7# out [31:0] $end
$upscope $end
$scope module ff_c_r_d_a $end
$var wire 1 ` clk $end
$var wire 1 "" enable $end
$var wire 5 8# in [4:0] $end
$var wire 1 o" reset $end
$var reg 5 9# out [4:0] $end
$upscope $end
$scope module ff_c_res $end
$var wire 1 ` clk $end
$var wire 1 "" enable $end
$var wire 32 :# in [31:0] $end
$var wire 1 o" reset $end
$var reg 32 ;# out [31:0] $end
$upscope $end
$scope module ff_c_swap_rm4 $end
$var wire 1 ` clk $end
$var wire 1 "" enable $end
$var wire 1 j in $end
$var wire 1 o" reset $end
$var reg 1 b out $end
$upscope $end
$scope module ff_c_w $end
$var wire 1 ` clk $end
$var wire 1 "" enable $end
$var wire 1 . in $end
$var wire 1 o" reset $end
$var reg 1 a out $end
$upscope $end
$scope module ff_d_exception $end
$var wire 1 ` clk $end
$var wire 1 " enable $end
$var wire 1 o" reset $end
$var wire 5 <# in [4:0] $end
$var reg 5 =# out [4:0] $end
$upscope $end
$scope module ff_d_func $end
$var wire 1 ` clk $end
$var wire 1 " enable $end
$var wire 7 ># in [6:0] $end
$var wire 1 o" reset $end
$var reg 7 ?# out [6:0] $end
$upscope $end
$scope module ff_d_is_load $end
$var wire 1 ` clk $end
$var wire 1 " enable $end
$var wire 1 +" in $end
$var wire 1 o" reset $end
$var reg 1 ] out $end
$upscope $end
$scope module ff_d_is_store $end
$var wire 1 ` clk $end
$var wire 1 " enable $end
$var wire 1 ," in $end
$var wire 1 o" reset $end
$var reg 1 \ out $end
$upscope $end
$scope module ff_d_nop $end
$var wire 1 ` clk $end
$var wire 1 " enable $end
$var wire 1 @# in $end
$var wire 1 o" reset $end
$var reg 1 [ out $end
$upscope $end
$scope module ff_d_pc $end
$var wire 1 ` clk $end
$var wire 1 " enable $end
$var wire 1 o" reset $end
$var wire 32 A# in [31:0] $end
$var reg 32 B# out [31:0] $end
$upscope $end
$scope module ff_d_r_a $end
$var wire 1 ` clk $end
$var wire 1 " enable $end
$var wire 32 C# in [31:0] $end
$var wire 1 o" reset $end
$var reg 32 D# out [31:0] $end
$upscope $end
$scope module ff_d_r_b $end
$var wire 1 ` clk $end
$var wire 1 " enable $end
$var wire 32 E# in [31:0] $end
$var wire 1 o" reset $end
$var reg 32 F# out [31:0] $end
$upscope $end
$scope module ff_d_r_d_a $end
$var wire 1 ` clk $end
$var wire 1 " enable $end
$var wire 5 G# in [4:0] $end
$var wire 1 o" reset $end
$var reg 5 H# out [4:0] $end
$upscope $end
$scope module ff_d_r_d_a_val $end
$var wire 1 ` clk $end
$var wire 1 " enable $end
$var wire 32 I# in [31:0] $end
$var wire 1 o" reset $end
$var reg 32 J# out [31:0] $end
$upscope $end
$scope module ff_d_tail $end
$var wire 1 ` clk $end
$var wire 1 " enable $end
$var wire 1 o" reset $end
$var wire 5 K# in [4:0] $end
$var reg 5 L# out [4:0] $end
$upscope $end
$scope module ff_d_w $end
$var wire 1 ` clk $end
$var wire 1 " enable $end
$var wire 1 2" in $end
$var wire 1 o" reset $end
$var reg 1 T out $end
$upscope $end
$scope module ff_f_exception $end
$var wire 1 ` clk $end
$var wire 1 & enable $end
$var wire 5 M# in [4:0] $end
$var wire 1 o" reset $end
$var reg 5 N# out [4:0] $end
$upscope $end
$scope module ff_f_nop $end
$var wire 1 ` clk $end
$var wire 1 & enable $end
$var wire 1 F" in $end
$var wire 1 o" reset $end
$var reg 1 Q out $end
$upscope $end
$scope module ff_f_pc $end
$var wire 1 ` clk $end
$var wire 1 $ enable $end
$var wire 32 O# in [31:0] $end
$var wire 1 o" reset $end
$var reg 32 P# out [31:0] $end
$upscope $end
$scope module ff_f_tail $end
$var wire 1 ` clk $end
$var wire 1 & enable $end
$var wire 1 o" reset $end
$var wire 5 Q# in [4:0] $end
$var reg 5 R# out [4:0] $end
$upscope $end
$scope module ff_f_tail_ctr $end
$var wire 1 ` clk $end
$var wire 1 & enable $end
$var wire 5 S# in [4:0] $end
$var wire 1 o" reset $end
$var reg 5 T# out [4:0] $end
$upscope $end
$scope module ff_f_wait_for_cache $end
$var wire 1 ` clk $end
$var wire 1 & enable $end
$var wire 1 J" in $end
$var wire 1 o" reset $end
$var reg 1 M out $end
$upscope $end
$scope module ff_m1_nop $end
$var wire 1 ` clk $end
$var wire 1 ' enable $end
$var wire 1 \" in $end
$var wire 1 o" reset $end
$var reg 1 L out $end
$upscope $end
$scope module ff_m1_pc $end
$var wire 1 ` clk $end
$var wire 1 ' enable $end
$var wire 32 U# in [31:0] $end
$var wire 1 o" reset $end
$var reg 32 V# out [31:0] $end
$upscope $end
$scope module ff_m1_r_b $end
$var wire 1 ` clk $end
$var wire 1 ' enable $end
$var wire 32 W# in [31:0] $end
$var wire 1 o" reset $end
$var reg 32 X# out [31:0] $end
$upscope $end
$scope module ff_m1_r_d_a $end
$var wire 1 ` clk $end
$var wire 1 ' enable $end
$var wire 5 Y# in [4:0] $end
$var wire 1 o" reset $end
$var reg 5 Z# out [4:0] $end
$upscope $end
$scope module ff_m1_tail $end
$var wire 1 ` clk $end
$var wire 1 ' enable $end
$var wire 5 [# in [4:0] $end
$var wire 1 o" reset $end
$var reg 5 \# out [4:0] $end
$upscope $end
$scope module ff_m2_nop $end
$var wire 1 ` clk $end
$var wire 1 ( enable $end
$var wire 1 L in $end
$var wire 1 o" reset $end
$var reg 1 F out $end
$upscope $end
$scope module ff_m2_pc $end
$var wire 1 ` clk $end
$var wire 1 ( enable $end
$var wire 32 ]# in [31:0] $end
$var wire 1 o" reset $end
$var reg 32 ^# out [31:0] $end
$upscope $end
$scope module ff_m2_r_a $end
$var wire 1 ` clk $end
$var wire 1 ( enable $end
$var wire 1 o" reset $end
$var wire 32 _# in [31:0] $end
$var reg 32 `# out [31:0] $end
$upscope $end
$scope module ff_m2_r_b $end
$var wire 1 ` clk $end
$var wire 1 ( enable $end
$var wire 32 a# in [31:0] $end
$var wire 1 o" reset $end
$var reg 32 b# out [31:0] $end
$upscope $end
$scope module ff_m2_r_d_a $end
$var wire 1 ` clk $end
$var wire 1 ( enable $end
$var wire 5 c# in [4:0] $end
$var wire 1 o" reset $end
$var reg 5 d# out [4:0] $end
$upscope $end
$scope module ff_m2_tail $end
$var wire 1 ` clk $end
$var wire 1 ( enable $end
$var wire 5 e# in [4:0] $end
$var wire 1 o" reset $end
$var reg 5 f# out [4:0] $end
$upscope $end
$scope module ff_m3_nop $end
$var wire 1 ` clk $end
$var wire 1 ) enable $end
$var wire 1 F in $end
$var wire 1 o" reset $end
$var reg 1 @ out $end
$upscope $end
$scope module ff_m3_pc $end
$var wire 1 ` clk $end
$var wire 1 ) enable $end
$var wire 32 g# in [31:0] $end
$var wire 1 o" reset $end
$var reg 32 h# out [31:0] $end
$upscope $end
$scope module ff_m3_r_a $end
$var wire 1 ` clk $end
$var wire 1 ) enable $end
$var wire 32 i# in [31:0] $end
$var wire 1 o" reset $end
$var reg 32 j# out [31:0] $end
$upscope $end
$scope module ff_m3_r_b $end
$var wire 1 ` clk $end
$var wire 1 ) enable $end
$var wire 32 k# in [31:0] $end
$var wire 1 o" reset $end
$var reg 32 l# out [31:0] $end
$upscope $end
$scope module ff_m3_r_d_a $end
$var wire 1 ` clk $end
$var wire 1 ) enable $end
$var wire 5 m# in [4:0] $end
$var wire 1 o" reset $end
$var reg 5 n# out [4:0] $end
$upscope $end
$scope module ff_m3_tail $end
$var wire 1 ` clk $end
$var wire 1 ) enable $end
$var wire 5 o# in [4:0] $end
$var wire 1 o" reset $end
$var reg 5 p# out [4:0] $end
$upscope $end
$scope module ff_m4_nop $end
$var wire 1 ` clk $end
$var wire 1 * enable $end
$var wire 1 @ in $end
$var wire 1 o" reset $end
$var reg 1 : out $end
$upscope $end
$scope module ff_m4_pc $end
$var wire 1 ` clk $end
$var wire 1 * enable $end
$var wire 32 q# in [31:0] $end
$var wire 1 o" reset $end
$var reg 32 r# out [31:0] $end
$upscope $end
$scope module ff_m4_r_a $end
$var wire 1 ` clk $end
$var wire 1 * enable $end
$var wire 32 s# in [31:0] $end
$var wire 1 o" reset $end
$var reg 32 t# out [31:0] $end
$upscope $end
$scope module ff_m4_r_b $end
$var wire 1 ` clk $end
$var wire 1 * enable $end
$var wire 32 u# in [31:0] $end
$var wire 1 o" reset $end
$var reg 32 v# out [31:0] $end
$upscope $end
$scope module ff_m4_r_d_a $end
$var wire 1 ` clk $end
$var wire 1 * enable $end
$var wire 5 w# in [4:0] $end
$var wire 1 o" reset $end
$var reg 5 x# out [4:0] $end
$upscope $end
$scope module ff_m4_tail $end
$var wire 1 ` clk $end
$var wire 1 * enable $end
$var wire 5 y# in [4:0] $end
$var wire 1 o" reset $end
$var reg 5 z# out [4:0] $end
$upscope $end
$scope module ff_m5_nop $end
$var wire 1 ` clk $end
$var wire 1 + enable $end
$var wire 1 : in $end
$var wire 1 o" reset $end
$var reg 1 4 out $end
$upscope $end
$scope module ff_m5_pc $end
$var wire 1 ` clk $end
$var wire 1 + enable $end
$var wire 32 {# in [31:0] $end
$var wire 1 o" reset $end
$var reg 32 |# out [31:0] $end
$upscope $end
$scope module ff_m5_r_d_a $end
$var wire 1 ` clk $end
$var wire 1 + enable $end
$var wire 5 }# in [4:0] $end
$var wire 1 o" reset $end
$var reg 5 ~# out [4:0] $end
$upscope $end
$scope module ff_m5_r_res $end
$var wire 1 ` clk $end
$var wire 1 + enable $end
$var wire 32 !$ in [31:0] $end
$var wire 1 o" reset $end
$var reg 32 "$ out [31:0] $end
$upscope $end
$scope module ff_m5_tail $end
$var wire 1 ` clk $end
$var wire 1 + enable $end
$var wire 1 o" reset $end
$var wire 5 #$ in [4:0] $end
$var reg 5 $$ out [4:0] $end
$upscope $end
$scope module ff_mx_r_a $end
$var wire 1 ` clk $end
$var wire 1 ' enable $end
$var wire 32 %$ in [31:0] $end
$var wire 1 o" reset $end
$var reg 32 &$ out [31:0] $end
$upscope $end
$scope module ff_stld_size $end
$var wire 1 ` clk $end
$var wire 1 " enable $end
$var wire 2 '$ in [1:0] $end
$var wire 1 o" reset $end
$var reg 2 ($ out [1:0] $end
$upscope $end
$scope begin $unm_blk_130 $end
$var integer 32 )$ j [31:0] $end
$upscope $end
$scope task handle_jump $end
$upscope $end
$scope task new_inst_found $end
$upscope $end
$scope task print_memory $end
$upscope $end
$scope task print_pipeline $end
$upscope $end
$scope task print_rob $end
$upscope $end
$scope task write_to_rob $end
$var reg 32 *$ in_add_miss [31:0] $end
$var reg 5 +$ in_exc [4:0] $end
$var reg 1 ,$ in_jump $end
$var reg 1 -$ in_load $end
$var reg 32 .$ in_pc [31:0] $end
$var reg 5 /$ in_reg [4:0] $end
$var reg 1 0$ in_store $end
$var reg 5 1$ in_tail [4:0] $end
$var reg 32 2$ in_val [31:0] $end
$var reg 1 3$ in_valid $end
$var reg 1 4$ in_write $end
$upscope $end
$upscope $end
$enddefinitions $end
#0
$dumpvars
x4$
x3$
bx 2$
bx 1$
x0$
bx /$
bx .$
x-$
x,$
bx +$
bx *$
bx )$
bx ($
bx '$
bx &$
bx %$
bx $$
bx #$
bx "$
bx !$
bx ~#
bx }#
bx |#
bx {#
bx z#
bx y#
bx x#
bx w#
bx v#
bx u#
bx t#
bx s#
bx r#
bx q#
bx p#
bx o#
bx n#
bx m#
bx l#
bx k#
bx j#
bx i#
bx h#
bx g#
bx f#
bx e#
bx d#
bx c#
bx b#
bx a#
bx `#
bx _#
bx ^#
bx ]#
bx \#
bx [#
bx Z#
bx Y#
bx X#
bx W#
bx V#
bx U#
bx T#
b0 S#
bx R#
bx Q#
bx P#
b1000000000000 O#
bx N#
b0 M#
bx L#
bx K#
bx J#
bx I#
bx H#
bx G#
bx F#
bx E#
bx D#
bx C#
bx B#
bx A#
1@#
bx ?#
bx >#
bx =#
bx <#
bx ;#
bx :#
bx 9#
b0z 8#
bx 7#
b0z 6#
x5#
bx 4#
b0 3#
bx 2#
bx 1#
bx 0#
bx /#
bx .#
bx -#
bx ,#
bx +#
bx *#
bx )#
bx (#
bx '#
1&#
bx %#
bx $#
bx ##
bx "#
bx !#
bx ~"
bx }"
bx |"
bx {"
bx z"
bx y"
b0 x"
1w"
b1000000000000000 v"
bx u"
b0 t"
1s"
bx r"
bx q"
0p"
0o"
0n"
b1000000000000 m"
b1000000000000 l"
xk"
xj"
bx i"
bx h"
bx g"
xf"
0e"
bx d"
0c"
0b"
0a"
0`"
bx _"
bx ^"
bx ]"
1\"
x["
bx Z"
bx Y"
bx X"
xW"
xV"
xU"
bx T"
bx S"
b0 R"
xQ"
0P"
bx O"
xN"
0M"
bx L"
xK"
0J"
0I"
b0 H"
0G"
1F"
bx E"
b0 D"
xC"
bx B"
bx A"
bx @"
x?"
x>"
bx ="
bx <"
x;"
bx :"
x9"
bx 8"
bx 7"
06"
05"
x4"
03"
x2"
bx 1"
bx 0"
bx /"
bx ."
1-"
x,"
x+"
bx *"
b0 )"
bx ("
1'"
0&"
bx %"
0$"
b0 #"
1""
0!"
0~
bx }
1|
x{
0z
bx y
0x
bx w
bx v
bx u
bx t
xs
xr
xq
xp
bx o
bx n
bx m
bx l
bx k
xj
bx i
xh
bx g
xf
bx e
bx d
bx c
xb
xa
0`
bx _
bx ^
x]
x\
x[
bx Z
bx Y
bx X
bx W
bx V
bx U
xT
bx S
bx R
xQ
bx P
bx O
bx N
xM
xL
bx K
bx J
bx I
bx H
bx G
xF
bx E
bx D
bx C
bx B
bx A
x@
bx ?
bx >
bx =
bx <
bx ;
x:
bx 9
bx 8
bx 7
bx 6
bx 5
x4
bx 3
bx 2
bx 1
bx 0
bx /
z.
z-
0,
1+
1*
1)
1(
1'
1&
1%
1$
b0 #
1"
1!
$end
#200
b100010000000 {"
#1000
b0 S
b0 <#
b0 N#
b0 R
b0 ##
b0 P
b0 A#
b0 P#
0Q
b0 O
b0 K#
b0 R#
b0 N
b0 Q#
b0 T#
0M
b0 Z
b0 '#
b0 B#
b0 W
b0 )#
b0 H#
b0 Y#
b0 V
b0 +#
b0 J#
b0 /
b0 /#
b0 ($
0T
0]
0\
b0 ^
b0 ?#
b0 Y
b0 D#
b0 X
b0 F#
b0 U
b0 1#
b0 L#
b0 [#
b0 _
b0 $#
b0 =#
0[
b0 o
b0 (#
b0 n
b0 *#
b0 m
b0 ,#
b0 k
b0 0#
0h
0s
0r
b0 l
b0 .#
0q
b0 i
b0 2#
0p
0j
b0 t
b0 %#
b0 H
b0 Z#
b0 c#
b0 J
b0 _#
b0 &$
b0 I
b0 X#
b0 a#
b0 G
b0 \#
b0 e#
0L
b0 B
b0 d#
b0 m#
b0 D
b0 `#
b0 i#
b0 C
b0 b#
b0 k#
b0 A
b0 f#
b0 o#
0F
b0 <
b0 n#
b0 w#
b0 >
b0 j#
b0 s#
b0 =
b0 l#
b0 u#
b0 ;
b0 p#
b0 y#
0@
b0 6
b0 x#
b0 }#
b0 8
b0 t#
b0 7
b0 v#
b0 5
b0 z#
0:
b0 2
b0 ~#
b0 1
b0 "$
b0 0
b0 #$
b0 $$
04
b0 e
b0 7#
b0 d
b0 9#
0a
b0 c
b0 ;#
0f
0b
b0 g
b0 4#
0F"
b0 r"
b0 q"
0Q"
0;"
09"
04"
b0 B"
0j"
b0 @"
1C"
0>"
b0 ="
b0 <"
b0 Z"
0k"
b0 X"
1["
0V"
b101000000000000 i"
b111111111111111111111111111111111 T"
b111111111111111111111111111111111 S"
b10010011111111 )$
b11111111111111111111111111111111 |"
b11 {"
1,
1o"
#1010
1F"
#1100
0@#
0-"
#1200
b100000 {"
#2000
0,
0o"
#2200
b0 *"
b0 >#
b0 }"
#2210
12"
0,"
0+"
b0 0"
b0 G#
0$
0&
1@#
b0 ~"
13"
1-"
b0 !#
#5000
0w"
xf
bx c
bx ;#
za
b0z d
b0z 9#
b0z e
b0z 7#
bx 1
bx "$
1L
bx I
bx X#
bx a#
bx J
bx _#
bx &$
1p
xq
bx l
bx .#
1[
bx X
bx F#
bx Y
bx D#
1T
bx /
bx /#
bx ($
bx V
bx +#
bx J#
0F"
b1 x"
1`
#5001
b1001 {"
#5020
1W"
b1000000000000 Y"
#5100
0{
0|
0@#
0-"
#5320
1M"
b1000000000000 L"
0W"
#5520
b100000000 y
b0 |"
1Q"
b100000000 O"
1F"
1I"
#5530
0M"
#6150
1&
03"
#6210
0&
1@#
13"
1-"
#10000
0`
#15000
bx m
bx ,#
bx k
bx 0#
1h
0q
bx D
bx `#
bx i#
bx C
bx b#
bx k#
1F
0F"
b10 x"
b1 |"
1`
#15001
b1001 {"
#15010
1J"
1F"
#15100
0@#
0-"
#16150
1&
03"
#16210
0&
1@#
13"
1-"
#20000
0`
#25000
1@
bx =
bx l#
bx u#
bx >
bx j#
bx s#
0F"
b11 x"
b10 |"
1`
#25001
b1001 {"
#25010
b1100110000000000000000000000000 h"
1F"
#25030
1P"
b11111111111111111111111111111111 |"
#25100
0@#
0-"
#26150
1&
03"
#26210
0&
1@#
13"
1-"
#30000
0`
#35000
bx 8
bx t#
bx 7
bx v#
1:
0F"
b100 x"
1`
#35001
b1001 {"
#35010
1N"
#35020
b1100110000000000000000000000000 E"
b1100110000000000000000000000000 "#
#35100
0@#
0-"
#35120
b1 H"
b1 S#
0J"
#35130
0N"
0P"
0I"
0Q"
#36150
1$
1&
03"
#36210
0$
0&
1@#
13"
1-"
#40000
0`
#45000
14
b101 x"
1`
#45001
b1001 {"
#45020
1W"
#45100
0@#
0-"
#45320
1M"
0W"
#45430
0M"
#46150
1$
1&
03"
#46210
b0 /"
b0 E#
b0 ."
b0 C#
b1001 {"
#50000
0`
#55000
0&#
b1100110000000000000000000000000 R
b1100110000000000000000000000000 ##
b1000000000000 P
b1000000000000 A#
b1000000000000 P#
b1 N
b1 Q#
b1 T#
b0 Y
b0 D#
b0 X
b0 F#
0[
b1000000000100 l"
b1000000000100 O#
b110 x"
1`
#55001
b1001 {"
#55020
1W"
b1000000000100 Y"
#55320
b0 E"
b0 "#
1M"
b1000000000100 L"
0W"
#55420
b10 H"
b10 S#
#55430
0M"
#55500
b0 }
b0 -#
#56000
0,$
00$
0-$
14$
b1 *$
b0 .$
b0 /$
b0 2$
b0 +$
13$
b0 1$
#56200
b100001 *"
b100001 >#
b110011 }"
#56210
02"
bx ."
bx C#
b110011 ~"
#60000
0`
#65000
b1000000001000 l"
b1000000001000 O#
0p
b0 l
b0 .#
bx Y
bx D#
b100001 ^
b100001 ?#
0T
b1000000000000 Z
b1000000000000 '#
b1000000000000 B#
b10 N
b10 Q#
b10 T#
b1 O
b1 K#
b1 R#
b1000000000100 P
b1000000000100 A#
b1000000000100 P#
b0 R
b0 ##
b111 x"
1`
#65001
b1001 {"
#65020
1W"
b1000000001000 Y"
#65101
b0 %"
b0 :#
#65120
b1 t"
b100000 {"
