src/test.vcd
$date
	Sat Jan 11 14:54:41 2025
$end
$version
	Icarus Verilog
$end
$timescale
	1ps
$end
$scope module processor_tb $end
$var wire 1 ! a_enable $end
$var wire 1 " d_enable $end
$var wire 32 # data [31:0] $end
$var wire 1 $ enable_inc $end
$var wire 1 % enable_pc $end
$var wire 1 & f_enable $end
$var wire 1 ' reset_pc $end
$var wire 2 ( stld_size [1:0] $end
$var wire 32 ) f_pc [31:0] $end
$var wire 1 * f_nop $end
$var wire 32 + f_instr [31:0] $end
$var wire 5 , f_exception [4:0] $end
$var wire 1 - d_w $end
$var wire 32 . d_r_d_a_val [31:0] $end
$var wire 5 / d_r_d_a [4:0] $end
$var wire 32 0 d_r_b [31:0] $end
$var wire 32 1 d_r_a [31:0] $end
$var wire 32 2 d_pc [31:0] $end
$var wire 1 3 d_nop $end
$var wire 1 4 d_is_store $end
$var wire 1 5 d_is_load $end
$var wire 7 6 d_func [6:0] $end
$var wire 5 7 d_exception [4:0] $end
$var wire 1 8 clk $end
$var wire 1 9 c_w $end
$var wire 1 : c_swap_rm4 $end
$var wire 32 ; c_res [31:0] $end
$var wire 5 < c_r_d_a [4:0] $end
$var wire 32 = c_pc [31:0] $end
$var wire 1 > c_nop $end
$var wire 5 ? c_exception [4:0] $end
$var wire 1 @ a_w $end
$var wire 1 A a_swap_rm4 $end
$var wire 2 B a_stld_size [1:0] $end
$var wire 32 C a_res [31:0] $end
$var wire 32 D a_r_d_a_val [31:0] $end
$var wire 5 E a_r_d_a [4:0] $end
$var wire 32 F a_pc [31:0] $end
$var wire 1 G a_nop $end
$var wire 1 H a_jump $end
$var wire 1 I a_is_store $end
$var wire 1 J a_is_load $end
$var wire 5 K a_exception [4:0] $end
$var reg 128 L __dmem_in_d_buffer [127:0] $end
$var reg 33 M __dmem_r_a_buffer [32:0] $end
$var reg 33 N __dmem_w_a_buffer [32:0] $end
$var reg 1 O __dwrite_or_read $end
$var reg 33 P __imem_a_buffer [32:0] $end
$var reg 1 Q __iwrite_or_read $end
$var reg 5 R a_exception_in [4:0] $end
$var reg 1 S a_jump_in $end
$var reg 1 T a_nop_in $end
$var reg 32 U a_res_in [31:0] $end
$var reg 1 V a_swap_rm4_in $end
$var reg 1 W a_wait $end
$var reg 1 X c_enable $end
$var reg 5 Y c_exception_in [4:0] $end
$var reg 1 Z c_nop_in $end
$var reg 32 [ c_res_in [31:0] $end
$var reg 1 \ c_wait $end
$var reg 32 ] d_addr [31:0] $end
$var reg 5 ^ d_exception_in [4:0] $end
$var reg 7 _ d_func_in [6:0] $end
$var reg 1 ` d_is_load_in $end
$var reg 1 a d_is_store_in $end
$var reg 1 b d_nop_in $end
$var reg 32 c d_r_a_in [31:0] $end
$var reg 32 d d_r_b_in [31:0] $end
$var reg 5 e d_r_d_a_in [4:0] $end
$var reg 32 f d_r_d_a_val_in [31:0] $end
$var reg 1 g d_w_in $end
$var reg 1 h d_wait $end
$var reg 1 i dcache_read $end
$var reg 1 j dhit $end
$var reg 1 k dmem_finished $end
$var reg 128 l dmem_in_data [127:0] $end
$var reg 33 m dmem_r_address [32:0] $end
$var reg 1 n dmem_read $end
$var reg 33 o dmem_w_address [32:0] $end
$var reg 1 p dmem_write $end
$var reg 32 q drm0 [31:0] $end
$var reg 32 r drm1 [31:0] $end
$var reg 1 s dtlb_miss $end
$var reg 1 t dtlb_read $end
$var reg 6 u dtlb_tail [5:0] $end
$var reg 32 v dtlb_va [31:0] $end
$var reg 20 w dtlb_valids [19:0] $end
$var reg 1 x dtlb_wait $end
$var reg 5 y f_exception_in [4:0] $end
$var reg 32 z f_instr_input [31:0] $end
$var reg 1 { f_nop_in $end
$var reg 1 | f_wait $end
$var reg 1 } hit $end
$var reg 32 ~ iaddr [31:0] $end
$var reg 1 !" icache_read $end
$var reg 1 "" icache_write $end
$var reg 33 #" imem_address [32:0] $end
$var reg 1 $" imem_finished $end
$var reg 1 %" imem_read $end
$var reg 32 &" in_data [31:0] $end
$var reg 33 '" irm0 [32:0] $end
$var reg 33 (" irm1 [32:0] $end
$var reg 1 )" itlb_hit $end
$var reg 1 *" itlb_miss $end
$var reg 1 +" itlb_read $end
$var reg 6 ," itlb_tail [5:0] $end
$var reg 32 -" itlb_va [31:0] $end
$var reg 20 ." itlb_valids [19:0] $end
$var reg 1 /" itlb_wait $end
$var reg 1 0" mem_reset $end
$var reg 128 1" out_dmem [127:0] $end
$var reg 128 2" out_imem [127:0] $end
$var reg 32 3" page_table_root_addr [31:0] $end
$var reg 1 4" page_walking_dtlb $end
$var reg 1 5" page_walking_itlb $end
$var reg 32 6" pc [31:0] $end
$var reg 32 7" pc_in [31:0] $end
$var reg 1 8" pc_jump $end
$var reg 1 9" reset $end
$var reg 1 :" rgs_enable $end
$var reg 32 ;" rm0 [31:0] $end
$var reg 32 <" rm1 [31:0] $end
$var reg 1 =" rm4 $end
$var reg 2 >" stld_size_in [1:0] $end
$var reg 20 ?" va_to_pa [19:0] $end
$var reg 1 @" was_reseted $end
$var integer 32 A" dread_cycles [31:0] $end
$var integer 32 B" dwrite_cycles [31:0] $end
$var integer 32 C" i [31:0] $end
$var integer 32 D" iwait_cycles [31:0] $end
$scope function calc_func $end
$var reg 7 E" op [6:0] $end
$upscope $end
$scope function needs_write $end
$var reg 6 F" op [5:0] $end
$upscope $end
$scope function try_bypass $end
$var reg 5 G" adr [4:0] $end
$upscope $end
$scope module clk_gen $end
$var parameter 32 H" PERIOD $end
$var reg 1 8 clk $end
$upscope $end
$scope module f_instr_ff $end
$var wire 1 8 clk $end
$var wire 1 & enable $end
$var wire 32 I" in [31:0] $end
$var wire 1 9" reset $end
$var parameter 32 J" BITS $end
$var reg 32 K" out [31:0] $end
$upscope $end
$scope module ff_a_exception $end
$var wire 1 8 clk $end
$var wire 1 ! enable $end
$var wire 1 9" reset $end
$var wire 5 L" in [4:0] $end
$var parameter 32 M" BITS $end
$var reg 5 N" out [4:0] $end
$upscope $end
$scope module ff_a_is_load $end
$var wire 1 8 clk $end
$var wire 1 ! enable $end
$var wire 1 9" reset $end
$var wire 1 5 in $end
$var parameter 32 O" BITS $end
$var reg 1 J out $end
$upscope $end
$scope module ff_a_is_store $end
$var wire 1 8 clk $end
$var wire 1 ! enable $end
$var wire 1 9" reset $end
$var wire 1 4 in $end
$var parameter 32 P" BITS $end
$var reg 1 I out $end
$upscope $end
$scope module ff_a_jump $end
$var wire 1 8 clk $end
$var wire 1 ! enable $end
$var wire 1 S in $end
$var wire 1 9" reset $end
$var parameter 32 Q" BITS $end
$var reg 1 H out $end
$upscope $end
$scope module ff_a_nop $end
$var wire 1 8 clk $end
$var wire 1 ! enable $end
$var wire 1 R" in $end
$var wire 1 9" reset $end
$var parameter 32 S" BITS $end
$var reg 1 G out $end
$upscope $end
$scope module ff_a_pc $end
$var wire 1 8 clk $end
$var wire 1 ! enable $end
$var wire 1 9" reset $end
$var wire 32 T" in [31:0] $end
$var parameter 32 U" BITS $end
$var reg 32 V" out [31:0] $end
$upscope $end
$scope module ff_a_r_d_a $end
$var wire 1 8 clk $end
$var wire 1 ! enable $end
$var wire 1 9" reset $end
$var wire 5 W" in [4:0] $end
$var parameter 32 X" BITS $end
$var reg 5 Y" out [4:0] $end
$upscope $end
$scope module ff_a_r_d_a_val $end
$var wire 1 8 clk $end
$var wire 1 ! enable $end
$var wire 1 9" reset $end
$var wire 32 Z" in [31:0] $end
$var parameter 32 [" BITS $end
$var reg 32 \" out [31:0] $end
$upscope $end
$scope module ff_a_res $end
$var wire 1 8 clk $end
$var wire 1 ! enable $end
$var wire 32 ]" in [31:0] $end
$var wire 1 9" reset $end
$var parameter 32 ^" BITS $end
$var reg 32 _" out [31:0] $end
$upscope $end
$scope module ff_a_stld_size $end
$var wire 1 8 clk $end
$var wire 1 " enable $end
$var wire 1 9" reset $end
$var wire 2 `" in [1:0] $end
$var parameter 32 a" BITS $end
$var reg 2 b" out [1:0] $end
$upscope $end
$scope module ff_a_swap_rm4 $end
$var wire 1 8 clk $end
$var wire 1 ! enable $end
$var wire 1 V in $end
$var wire 1 9" reset $end
$var parameter 32 c" BITS $end
$var reg 1 A out $end
$upscope $end
$scope module ff_a_w $end
$var wire 1 8 clk $end
$var wire 1 ! enable $end
$var wire 1 9" reset $end
$var wire 1 - in $end
$var parameter 32 d" BITS $end
$var reg 1 @ out $end
$upscope $end
$scope module ff_c_exception $end
$var wire 1 8 clk $end
$var wire 1 X enable $end
$var wire 5 e" in [4:0] $end
$var wire 1 9" reset $end
$var parameter 32 f" BITS $end
$var reg 5 g" out [4:0] $end
$upscope $end
$scope module ff_c_nop $end
$var wire 1 8 clk $end
$var wire 1 X enable $end
$var wire 1 h" in $end
$var wire 1 9" reset $end
$var parameter 32 i" BITS $end
$var reg 1 > out $end
$upscope $end
$scope module ff_c_pc $end
$var wire 1 8 clk $end
$var wire 1 X enable $end
$var wire 32 j" in [31:0] $end
$var wire 1 9" reset $end
$var parameter 32 k" BITS $end
$var reg 32 l" out [31:0] $end
$upscope $end
$scope module ff_c_r_d_a $end
$var wire 1 8 clk $end
$var wire 1 X enable $end
$var wire 5 m" in [4:0] $end
$var wire 1 9" reset $end
$var parameter 32 n" BITS $end
$var reg 5 o" out [4:0] $end
$upscope $end
$scope module ff_c_res $end
$var wire 1 8 clk $end
$var wire 1 X enable $end
$var wire 32 p" in [31:0] $end
$var wire 1 9" reset $end
$var parameter 32 q" BITS $end
$var reg 32 r" out [31:0] $end
$upscope $end
$scope module ff_c_swap_rm4 $end
$var wire 1 8 clk $end
$var wire 1 X enable $end
$var wire 1 A in $end
$var wire 1 9" reset $end
$var parameter 32 s" BITS $end
$var reg 1 : out $end
$upscope $end
$scope module ff_c_w $end
$var wire 1 8 clk $end
$var wire 1 X enable $end
$var wire 1 @ in $end
$var wire 1 9" reset $end
$var parameter 32 t" BITS $end
$var reg 1 9 out $end
$upscope $end
$scope module ff_d_exception $end
$var wire 1 8 clk $end
$var wire 1 " enable $end
$var wire 1 9" reset $end
$var wire 5 u" in [4:0] $end
$var parameter 32 v" BITS $end
$var reg 5 w" out [4:0] $end
$upscope $end
$scope module ff_d_func $end
$var wire 1 8 clk $end
$var wire 1 " enable $end
$var wire 7 x" in [6:0] $end
$var wire 1 9" reset $end
$var parameter 32 y" BITS $end
$var reg 7 z" out [6:0] $end
$upscope $end
$scope module ff_d_is_load $end
$var wire 1 8 clk $end
$var wire 1 " enable $end
$var wire 1 ` in $end
$var wire 1 9" reset $end
$var parameter 32 {" BITS $end
$var reg 1 5 out $end
$upscope $end
$scope module ff_d_is_store $end
$var wire 1 8 clk $end
$var wire 1 " enable $end
$var wire 1 a in $end
$var wire 1 9" reset $end
$var parameter 32 |" BITS $end
$var reg 1 4 out $end
$upscope $end
$scope module ff_d_nop $end
$var wire 1 8 clk $end
$var wire 1 " enable $end
$var wire 1 }" in $end
$var wire 1 9" reset $end
$var parameter 32 ~" BITS $end
$var reg 1 3 out $end
$upscope $end
$scope module ff_d_pc $end
$var wire 1 8 clk $end
$var wire 1 " enable $end
$var wire 1 9" reset $end
$var wire 32 !# in [31:0] $end
$var parameter 32 "# BITS $end
$var reg 32 ## out [31:0] $end
$upscope $end
$scope module ff_d_r_a $end
$var wire 1 8 clk $end
$var wire 1 " enable $end
$var wire 32 $# in [31:0] $end
$var wire 1 9" reset $end
$var parameter 32 %# BITS $end
$var reg 32 &# out [31:0] $end
$upscope $end
$scope module ff_d_r_b $end
$var wire 1 8 clk $end
$var wire 1 " enable $end
$var wire 32 '# in [31:0] $end
$var wire 1 9" reset $end
$var parameter 32 (# BITS $end
$var reg 32 )# out [31:0] $end
$upscope $end
$scope module ff_d_r_d_a $end
$var wire 1 8 clk $end
$var wire 1 " enable $end
$var wire 5 *# in [4:0] $end
$var wire 1 9" reset $end
$var parameter 32 +# BITS $end
$var reg 5 ,# out [4:0] $end
$upscope $end
$scope module ff_d_r_d_a_val $end
$var wire 1 8 clk $end
$var wire 1 " enable $end
$var wire 32 -# in [31:0] $end
$var wire 1 9" reset $end
$var parameter 32 .# BITS $end
$var reg 32 /# out [31:0] $end
$upscope $end
$scope module ff_d_w $end
$var wire 1 8 clk $end
$var wire 1 " enable $end
$var wire 1 g in $end
$var wire 1 9" reset $end
$var parameter 32 0# BITS $end
$var reg 1 - out $end
$upscope $end
$scope module ff_f_exception $end
$var wire 1 8 clk $end
$var wire 1 & enable $end
$var wire 5 1# in [4:0] $end
$var wire 1 9" reset $end
$var parameter 32 2# BITS $end
$var reg 5 3# out [4:0] $end
$upscope $end
$scope module ff_f_nop $end
$var wire 1 8 clk $end
$var wire 1 & enable $end
$var wire 1 { in $end
$var wire 1 9" reset $end
$var parameter 32 4# BITS $end
$var reg 1 * out $end
$upscope $end
$scope module ff_f_pc $end
$var wire 1 8 clk $end
$var wire 1 $ enable $end
$var wire 32 5# in [31:0] $end
$var wire 1 9" reset $end
$var parameter 32 6# BITS $end
$var reg 32 7# out [31:0] $end
$upscope $end
$scope module ff_stld_size $end
$var wire 1 8 clk $end
$var wire 1 " enable $end
$var wire 2 8# in [1:0] $end
$var wire 1 9" reset $end
$var parameter 32 9# BITS $end
$var reg 2 :# out [1:0] $end
$upscope $end
$scope begin $unm_blk_102 $end
$var integer 32 ;# j [31:0] $end
$upscope $end
$scope task print_pipeline $end
$upscope $end
$upscope $end
$enddefinitions $end
$comment Show the parameter values. $end
$dumpall
b10 9#
b100000 6#
b1 4#
b101 2#
b1 0#
b100000 .#
b101 +#
b100000 (#
b100000 %#
b100000 "#
b1 ~"
b1 |"
b1 {"
b111 y"
b101 v"
b1 t"
b1 s"
b100000 q"
b101 n"
b100000 k"
b1 i"
b101 f"
b1 d"
b1 c"
b10 a"
b100000 ^"
b100000 ["
b101 X"
b100000 U"
b1 S"
b1 Q"
b1 P"
b1 O"
b101 M"
b100000 J"
b1010 H"
$end
#0
$dumpvars
bx ;#
bx :#
bx 8#
bx 7#
b1000000000000 5#
bx 3#
b0 1#
bx /#
bx -#
bx ,#
bx *#
bx )#
bx '#
bx &#
bx $#
bx ##
bx !#
x}"
bx z"
bx x"
bx w"
bx u"
bx r"
bx p"
bx o"
bx m"
bx l"
bx j"
xh"
bx g"
b0 e"
bx b"
bx `"
bx _"
bx ]"
bx \"
bx Z"
bx Y"
bx W"
bx V"
bx T"
xR"
bx N"
bx L"
bx K"
bx I"
bx G"
bx F"
bx E"
bx D"
bx C"
bx B"
bx A"
1@"
b1000000000000000 ?"
bx >"
1="
bx <"
bx ;"
0:"
09"
08"
b1000000000000 7"
b1000000000000 6"
x5"
x4"
bx 3"
bx 2"
bx 1"
x0"
x/"
bx ."
bx -"
bx ,"
x+"
x*"
x)"
bx ("
bx '"
b0 &"
x%"
0$"
bx #"
x""
x!"
bx ~
x}
0|
1{
bx z
b0 y
xx
bx w
bx v
bx u
xt
xs
bx r
bx q
xp
bx o
xn
bx m
bx l
0k
0j
xi
0h
xg
bx f
bx e
bx d
bx c
0b
xa
x`
bx _
b0 ^
bx ]
0\
bx [
0Z
b0 Y
1X
0W
0V
bx U
0T
xS
b0 R
0Q
bx P
0O
bx N
bx M
bx L
bx K
xJ
xI
xH
xG
bx F
bx E
bx D
bx C
bx B
xA
x@
bx ?
x>
bx =
bx <
bx ;
x:
x9
08
bx 7
bx 6
x5
x4
x3
bx 2
bx 1
bx 0
bx /
bx .
x-
bx ,
bx +
x*
bx )
bx (
0'
1&
1%
1$
b0 #
1"
1!
$end
#1000
0}"
0R"
0h"
b0 ,
b0 u"
b0 3#
b0 +
b0 K"
b0 )
b0 !#
b0 7#
0*
b0 2
b0 T"
b0 ##
b0 /
b0 W"
b0 ,#
b0 .
b0 Z"
b0 /#
b0 (
b0 `"
b0 :#
0-
05
04
b0 6
b0 z"
b0 1
b0 &#
b0 0
b0 )#
b0 7
b0 L"
b0 w"
03
b0 F
b0 V"
b0 j"
b0 E
b0 Y"
b0 m"
b0 D
b0 \"
b0 B
b0 b"
0@
0J
0I
b0 C
b0 _"
0H
0G
0A
b0 K
b0 N"
b0 =
b0 l"
b0 <
b0 o"
09
b0 ;
b0 r"
0>
0:
b0 ?
b0 g"
0{
b0 <"
b0 ;"
0%"
0p
0n
0i
b0 w
04"
b0 u
1x
0s
b0 r
b0 q
b0 ."
05"
b0 ,"
1/"
0*"
b101000000000000 3"
b111111111111111111111111111111111 ("
b111111111111111111111111111111111 '"
b10010011111111 ;#
b11111111111111111111111111111111 D"
0!"
b11 C"
1'
19"
#1010
1{
#1100
0S
#1200
b100000 C"
#1410
0{
#2000
0'
09"
#5000
0@"
bx ;
bx r"
bx C
bx _"
bx 0
bx )#
bx 1
bx &#
bx 6
bx z"
x4
x5
x-
bx (
bx `"
bx :#
bx .
bx Z"
bx /#
bx /
bx W"
bx ,#
b1000000000000 )
b1000000000000 !#
b1000000000000 7#
bx +
bx K"
18
#5020
1+"
b1000000000000 -"
#5320
1!"
b1000000000000 ~
0+"
#5400
b0 U
b0 ]"
#5510
b0 _
b0 x"
#5520
b100000000 P
b0 D"
b0xxxxxxxxxxxxxxxxxxxx d
b0xxxxxxxxxxxxxxxxxxxx '#
1g
1%"
b100000000 #"
0$
1{
1|
#5530
0!"
#10000
08
#15000
1}"
1*
b1000000000000 2
b1000000000000 T"
b1000000000000 ##
1-
b0 6
b0 z"
b0xxxxxxxxxxxxxxxxxxxx 0
b0xxxxxxxxxxxxxxxxxxxx )#
bx E
bx Y"
bx m"
bx D
bx \"
bx B
bx b"
x@
xJ
xI
b0 C
b0 _"
0{
b1 D"
18
#15010
1{
#15101
b0 [
b0 p"
#15400
bx U
bx ]"
#20000
08
#25000
1R"
b0 ;
b0 r"
x9
bx <
bx o"
bx C
bx _"
1@
b1000000000000 F
b1000000000000 V"
b1000000000000 j"
13
0{
b10 D"
18
#25010
b1100110000000000000000000000000 2"
1{
#25030
1$"
b11111111111111111111111111111111 D"
#25101
bx [
bx p"
#30000
08
#35000
1h"
1G
b1000000000000 =
b1000000000000 l"
19
bx ;
bx r"
0{
18
#35010
1""
#35020
b1100110000000000000000000000000 z
b1100110000000000000000000000000 I"
#35030
1$
0""
0$"
0|
0%"
#35410
b100000 C"
#40000
08
#45000
0}"
b1000000000100 6"
b1000000000100 5#
1>
0*
b1100110000000000000000000000000 +
b1100110000000000000000000000000 K"
18
#45020
1+"
b1000000000100 -"
#45320
b0 z
b0 I"
1!"
b1000000000100 ~
0+"
#45330
0!"
#45510
b100001 _
b100001 x"
b110011 E"
#45520
b0 d
b0 '#
0g
0a
0`
b0 e
b0 *#
b110011 F"
b0 G"
#50000
08
#55000
0R"
b0 +
b0 K"
b1000000000100 )
b1000000000100 !#
b1000000000100 7#
b0 /
b0 W"
b0 ,#
0-
05
04
b100001 6
b100001 z"
b0 0
b0 )#
03
b1000000001000 6"
b1000000001000 5#
18
#55020
1+"
b1000000001000 -"
#55320
1!"
b1000000001000 ~
0+"
#55330
0!"
#55400
b0 U
b0 ]"
1S
1V
#55510
b0 _
b0 x"
b0 E"
#55520
bx d
bx '#
1g
0$
x&
1}"
b0 F"
1h
1b
#60000
08
#65000
0h"
1R"
1A
0G
1H
b0 C
b0 _"
0I
0J
0@
b0 E
b0 Y"
b0 m"
13
bx 0
bx )#
b0 6
b0 z"
1-
b1000000000100 2
b1000000000100 T"
b1000000000100 ##
18
#65020
1+"
#65100
0S
0V
#65101
b0 [
b0 p"
#65200
1{
1T
b0 7"
18"
#65201
0="
#65320
0+"
#65460
1$
1&
0}"
0b
0h
#65520
b0 d
b0 '#
b0 c
b0 $#
#70000
08
#75000
1}"
1h"
b1000000001000 )
b1000000001000 !#
b1000000001000 7#
1*
b0 1
b0 &#
b0 0
b0 )#
03
b1000000000100 F
b1000000000100 V"
b1000000000100 j"
1@
0H
1G
0A
b0 <
b0 o"
09
b0 ;
b0 r"
0>
1:
08"
b0 6"
b0 5#
0{
18
#75020
1+"
b0 -"
#75100
0R"
0T
#75320
0)"
0+"
#75330
b10100 C"
#75340
b1 y
b1 1#
b0 ("
b0 '"
#80000
08
#85000
0h"
1R"
0}"
b100 6"
b100 5#
0:
1>
19
b1000000000100 =
b1000000000100 l"
0G
13
b1000000001000 2
b1000000001000 T"
b1000000001000 ##
0*
b0 )
b0 !#
b0 7#
b1 ,
b1 u"
b1 3#
b0 y
b0 1#
18
#85020
1+"
b100 -"
#85320
0+"
#85330
b10100 C"
#85540
1{
#90000
08
#95000
1}"
0R"
1h"
b0 ,
b0 u"
b0 3#
b100 )
b100 !#
b100 7#
1*
b0 2
b0 T"
b0 ##
b1 7
b1 L"
b1 w"
03
b1000000001000 F
b1000000001000 V"
b1000000001000 j"
1G
0>
b1000 6"
b1000 5#
0{
18
#95020
1+"
b1000 -"
#95100
1b
1{
#95320
0+"
#95410
b100000 C"
#100000
08
#105000
0h"
1R"
b1100 6"
b1100 5#
1>
b1000000001000 =
b1000000001000 l"
b1 K
b1 N"
0G
b0 F
b0 V"
b0 j"
13
b0 7
b0 L"
b0 w"
b100 2
b100 T"
b100 ##
b1000 )
b1000 !#
b1000 7#
0{
18
#105001
b1 Y
b1 e"
#105010
1T
1{
#105020
1+"
b1100 -"
#105100
0T
#105320
0+"
#110000
08
#115000
1h"
b1100 )
b1100 !#
b1100 7#
b1000 2
b1000 T"
b1000 ##
b100 F
b100 V"
b100 j"
1G
b0 K
b0 N"
b0 =
b0 l"
0>
b1 ?
b1 g"
b10000 6"
b10000 5#
0{
18
#115001
b0 Y
b0 e"
#115020
1+"
b10000 -"
#115320
0+"
#115330
b10100 C"
#115400
1{
1="
18"
b10000000000000 7"
#120000
08
#125000
08"
b10000000000000 6"
b10000000000000 5#
b0 ?
b0 g"
1>
b100 =
b100 l"
b1000 F
b1000 V"
b1000 j"
b1100 2
b1100 T"
b1100 ##
b10000 )
b10000 !#
b10000 7#
0{
18
#125020
1+"
b10000000000000 -"
#125320
1!"
b10000000000000 ~
0+"
#125520
b1000000000 P
b0 D"
1%"
b1000000000 #"
0$
1{
1|
#125530
0!"
#130000
08
#135000
b10000 2
b10000 T"
b10000 ##
b1100 F
b1100 V"
b1100 j"
b1000 =
b1000 l"
0{
b1 D"
18
#135010
1{
#140000
08
#145000
b1100 =
b1100 l"
b10000 F
b10000 V"
b10000 j"
0{
b10 D"
18
#145010
b110011000000000000000000000000001100100000000000000000000000000 2"
1{
#145030
1$"
b11111111111111111111111111111111 D"
#150000
08
#155000
b10000 =
b10000 l"
0{
18
#155010
1""
#155020
b1100100000000000000000000000000 z
b1100100000000000000000000000000 I"
#155030
1$
0""
0$"
0|
0%"
#160000
08
#165000
b10000000000100 6"
b10000000000100 5#
0*
b10000000000000 )
b10000000000000 !#
b10000000000000 7#
b1100100000000000000000000000000 +
b1100100000000000000000000000000 K"
18
#165020
1+"
b10000000000100 -"
#165320
b1100110000000000000000000000000 z
b1100110000000000000000000000000 I"
1!"
b10000000000100 ~
0+"
#165330
0!"
#165460
0}"
0b
#165510
b100000 _
b100000 x"
b110010 E"
#165520
0g
bx c
bx $#
b110010 F"
#170000
08
#175000
0R"
b1100110000000000000000000000000 +
b1100110000000000000000000000000 K"
b10000000000100 )
b10000000000100 !#
b10000000000100 7#
b10000000000000 2
b10000000000000 T"
b10000000000000 ##
0-
b100000 6
b100000 z"
bx 1
bx &#
03
b10000000001000 6"
b10000000001000 5#
18
#175020
1+"
b10000000001000 -"
#175320
b0 z
b0 I"
1!"
b10000000001000 ~
0+"
#175330
0!"
#175410
b1 ,"
#175510
b100001 _
b100001 x"
b110011 E"
#175520
b110011 F"
#180000
08
#185000
0h"
b10000000001100 6"
b10000000001100 5#
0G
0@
b10000000000000 F
b10000000000000 V"
b10000000000000 j"
b100001 6
b100001 z"
b10000000000100 2
b10000000000100 T"
b10000000000100 ##
b10000000001000 )
b10000000001000 !#
b10000000001000 7#
b0 +
b0 K"
18
#185020
1+"
b10000000001100 -"
#185320
1!"
b10000000001100 ~
0+"
#185330
0!"
#185400
1S
1V
#185510
b0 _
b0 x"
b0 E"
#185520
bx d
bx '#
1g
0$
x&
1}"
b0 F"
1h
1b
#190000
08
#195000
1R"
b10000000001000 2
b10000000001000 T"
b10000000001000 ##
1-
b0 6
b0 z"
bx 0
bx )#
13
b10000000000100 F
b10000000000100 V"
b10000000000100 j"
1H
1A
b10000000000000 =
b10000000000000 l"
09
0>
18
#195020
1+"
#195100
0S
0V
#195200
1{
1T
b0 7"
18"
#195201
0="
b111111111111111111111111111111111 '"
b111111111111111111111111111111111 ("
#195320
0+"
#195460
1$
1&
0}"
0b
0h
#195520
b0 d
b0 '#
b0 c
b0 $#
#200000
08
#205000
1h"
1}"
08"
b0 6"
b0 5#
1:
b10000000000100 =
b10000000000100 l"
0A
1G
0H
1@
b10000000001000 F
b10000000001000 V"
b10000000001000 j"
03
b0 0
b0 )#
b0 1
b0 &#
1*
b10000000001100 )
b10000000001100 !#
b10000000001100 7#
0{
18
#205020
1+"
b0 -"
#205100
0R"
0T
#205320
0+"
#205330
b1000000000000000 ~
1)"
b10100 C"
#205340
1!"
#205540
b100000000000 P
b0 D"
1%"
b100000000000 #"
0$
1{
1|
#205550
0!"
#210000
08
#215000
1R"
0h"
b10000000001100 2
b10000000001100 T"
b10000000001100 ##
13
0G
b10000000001000 =
b10000000001000 l"
19
1>
0:
0{
b1 D"
18
#215010
1{
#220000
08
#225000
1h"
0>
1G
b10000000001100 F
b10000000001100 V"
b10000000001100 j"
0{
b10 D"
18
#225010
b101110010000000000000010000000001011100011000000100011111111110010111000100000000000000000000000101110000100000000000000000000 2"
1{
#225030
1$"
b11111111111111111111111111111111 D"
#225410
b100000 C"
#230000
08
#235000
b10000000001100 =
b10000000001100 l"
1>
0{
18
#235010
1""
#235020
b101110000100000000000000000000 z
b101110000100000000000000000000 I"
#235030
1$
0""
0$"
0|
0%"
#240000
08
#245000
0}"
b100 6"
b100 5#
0*
b0 )
b0 !#
b0 7#
b101110000100000000000000000000 +
b101110000100000000000000000000 K"
18
#245020
1+"
b100 -"
#245320
0)"
0+"
#245330
b1000000000000100 ~
1)"
b10100 C"
#245340
b101110001000000000000000000000 z
b101110001000000000000000000000 I"
1!"
#245350
0!"
#245510
b10001 _
b10001 x"
b10111 E"
#245520
b1000000000000000 d
b1000000000000000 '#
b1 e
b1 *#
b10111 F"
#250000
08
#255000
0R"
b101110001000000000000000000000 +
b101110001000000000000000000000 K"
b100 )
b100 !#
b100 7#
b0 2
b0 T"
b0 ##
b1 /
b1 W"
b1 ,#
b10001 6
b10001 z"
b1000000000000000 0
b1000000000000000 )#
03
b1000 6"
b1000 5#
18
#255020
1+"
b1000 -"
#255320
0)"
0+"
#255330
b1000000000001000 ~
1)"
b10100 C"
#255340
b101110001100000010001111111111 z
b101110001100000010001111111111 I"
1!"
#255350
0!"
#255520
b10000000000000000 d
b10000000000000000 '#
b10 e
b10 *#
#260000
08
#265000
0h"
b1100 6"
b1100 5#
0G
b1 E
b1 Y"
b1 m"
b0 F
b0 V"
b0 j"
b10000000000000000 0
b10000000000000000 )#
b10 /
b10 W"
b10 ,#
b100 2
b100 T"
b100 ##
b1000 )
b1000 !#
b1000 7#
b101110001100000010001111111111 +
b101110001100000010001111111111 K"
18
#265020
1+"
b1100 -"
#265320
0)"
0+"
#265330
b1000000000001100 ~
1)"
b10100 C"
#265340
b101110010000000000000010000000 z
b101110010000000000000010000000 I"
1!"
#265350
0!"
#265520
b11010001111111111 d
b11010001111111111 '#
b10001111111111 c
b10001111111111 $#
b11 e
b11 *#
#270000
08
#275000
b101110010000000000000010000000 +
b101110010000000000000010000000 K"
b1100 )
b1100 !#
b1100 7#
b1000 2
b1000 T"
b1000 ##
b11 /
b11 W"
b11 ,#
b10001111111111 1
b10001111111111 &#
b11010001111111111 0
b11010001111111111 )#
b100 F
b100 V"
b100 j"
b10 E
b10 Y"
b10 m"
b0 =
b0 l"
b1 <
b1 o"
0>
b10000 6"
b10000 5#
18
#275020
1+"
b10000 -"
#275320
0)"
0+"
#275330
b1000000000010000 ~
1)"
b10100 C"
#275340
1!"
#275400
b10001111111111 U
b10001111111111 ]"
#275410
b100000 C"
#275520
b100000000010000000 d
b100000000010000000 '#
b10000000 c
b10000000 $#
b100 e
b100 *#
#275540
b100000000001 P
b0 D"
1%"
b100000000001 #"
0$
1{
1|
#275550
0!"
#280000
08
#285000
1}"
b10 <
b10 o"
b100 =
b100 l"
b10001111111111 C
b10001111111111 _"
b11 E
b11 Y"
b11 m"
b1000 F
b1000 V"
b1000 j"
b100000000010000000 0
b100000000010000000 )#
b10000000 1
b10000000 &#
b100 /
b100 W"
b100 ,#
b1100 2
b1100 T"
b1100 ##
1*
0{
b1 D"
18
#285010
1{
#285101
b10001111111111 [
b10001111111111 p"
#285400
b10000000 U
b10000000 ]"
#285410
b100000 C"
#290000
08
#295000
1R"
13
b1100 F
b1100 V"
b1100 j"
b100 E
b100 Y"
b100 m"
b10000000 C
b10000000 _"
b1000 =
b1000 l"
b11 <
b11 o"
b10001111111111 ;
b10001111111111 r"
0{
b10 D"
18
#295010
b101110100000000000000000000001001011100111000000000000000001000010111001100000000000000000000000101110010100000000000000000000 2"
1{
#295030
1$"
b11111111111111111111111111111111 D"
#295101
b10000000 [
b10000000 p"
#295410
b100000 C"
#300000
08
#305000
1h"
b10000000 ;
b10000000 r"
b100 <
b100 o"
b1100 =
b1100 l"
1G
0{
18
#305010
1""
#305020
b101110010100000000000000000000 z
b101110010100000000000000000000 I"
#305030
1$
0""
0$"
0|
0%"
#305410
b100000 C"
#310000
08
#315000
0}"
b101110010100000000000000000000 +
b101110010100000000000000000000 K"
b10000 )
b10000 !#
b10000 7#
0*
1>
b10100 6"
b10100 5#
18
#315020
1+"
b10100 -"
#315320
0)"
0+"
