src/test.vcd
$date
	Sat Jan 11 14:24:50 2025
$end
$version
	Icarus Verilog
$end
$timescale
	1ps
$end
$scope module processor_tb $end
$var wire 1 ! a_enable $end
$var wire 1 " d_enable $end
$var wire 32 # data [31:0] $end
$var wire 1 $ enable_inc $end
$var wire 1 % enable_pc $end
$var wire 1 & f_enable $end
$var wire 1 ' reset_pc $end
$var wire 2 ( stld_size [1:0] $end
$var wire 32 ) f_pc [31:0] $end
$var wire 1 * f_nop $end
$var wire 32 + f_instr [31:0] $end
$var wire 5 , f_exception [4:0] $end
$var wire 1 - d_w $end
$var wire 32 . d_r_d_a_val [31:0] $end
$var wire 5 / d_r_d_a [4:0] $end
$var wire 32 0 d_r_b [31:0] $end
$var wire 32 1 d_r_a [31:0] $end
$var wire 32 2 d_pc [31:0] $end
$var wire 1 3 d_nop $end
$var wire 1 4 d_is_store $end
$var wire 1 5 d_is_load $end
$var wire 7 6 d_func [6:0] $end
$var wire 5 7 d_exception [4:0] $end
$var wire 1 8 clk $end
$var wire 1 9 c_w $end
$var wire 1 : c_swap_rm4 $end
$var wire 32 ; c_res [31:0] $end
$var wire 5 < c_r_d_a [4:0] $end
$var wire 32 = c_pc [31:0] $end
$var wire 1 > c_nop $end
$var wire 5 ? c_exception [4:0] $end
$var wire 1 @ a_w $end
$var wire 1 A a_swap_rm4 $end
$var wire 2 B a_stld_size [1:0] $end
$var wire 32 C a_res [31:0] $end
$var wire 32 D a_r_d_a_val [31:0] $end
$var wire 5 E a_r_d_a [4:0] $end
$var wire 32 F a_pc [31:0] $end
$var wire 1 G a_nop $end
$var wire 1 H a_jump $end
$var wire 1 I a_is_store $end
$var wire 1 J a_is_load $end
$var wire 5 K a_exception [4:0] $end
$var reg 128 L __dmem_in_d_buffer [127:0] $end
$var reg 33 M __dmem_r_a_buffer [32:0] $end
$var reg 33 N __dmem_w_a_buffer [32:0] $end
$var reg 1 O __dwrite_or_read $end
$var reg 33 P __imem_a_buffer [32:0] $end
$var reg 1 Q __iwrite_or_read $end
$var reg 5 R a_exception_in [4:0] $end
$var reg 1 S a_jump_in $end
$var reg 1 T a_nop_in $end
$var reg 32 U a_res_in [31:0] $end
$var reg 1 V a_swap_rm4_in $end
$var reg 1 W a_wait $end
$var reg 1 X c_enable $end
$var reg 5 Y c_exception_in [4:0] $end
$var reg 1 Z c_nop_in $end
$var reg 32 [ c_res_in [31:0] $end
$var reg 1 \ c_wait $end
$var reg 32 ] d_addr [31:0] $end
$var reg 5 ^ d_exception_in [4:0] $end
$var reg 7 _ d_func_in [6:0] $end
$var reg 1 ` d_is_load_in $end
$var reg 1 a d_is_store_in $end
$var reg 1 b d_nop_in $end
$var reg 32 c d_r_a_in [31:0] $end
$var reg 32 d d_r_b_in [31:0] $end
$var reg 5 e d_r_d_a_in [4:0] $end
$var reg 32 f d_r_d_a_val_in [31:0] $end
$var reg 1 g d_w_in $end
$var reg 1 h d_wait $end
$var reg 1 i dcache_read $end
$var reg 1 j dhit $end
$var reg 1 k dmem_finished $end
$var reg 128 l dmem_in_data [127:0] $end
$var reg 33 m dmem_r_address [32:0] $end
$var reg 1 n dmem_read $end
$var reg 33 o dmem_w_address [32:0] $end
$var reg 1 p dmem_write $end
$var reg 32 q drm0 [31:0] $end
$var reg 32 r drm1 [31:0] $end
$var reg 1 s dtlb_miss $end
$var reg 1 t dtlb_read $end
$var reg 6 u dtlb_tail [5:0] $end
$var reg 32 v dtlb_va [31:0] $end
$var reg 20 w dtlb_valids [19:0] $end
$var reg 1 x dtlb_wait $end
$var reg 5 y f_exception_in [4:0] $end
$var reg 32 z f_instr_input [31:0] $end
$var reg 1 { f_nop_in $end
$var reg 1 | f_wait $end
$var reg 1 } hit $end
$var reg 32 ~ iaddr [31:0] $end
$var reg 1 !" icache_read $end
$var reg 1 "" icache_write $end
$var reg 33 #" imem_address [32:0] $end
$var reg 1 $" imem_finished $end
$var reg 1 %" imem_read $end
$var reg 32 &" in_data [31:0] $end
$var reg 33 '" irm0 [32:0] $end
$var reg 33 (" irm1 [32:0] $end
$var reg 1 )" itlb_hit $end
$var reg 1 *" itlb_miss $end
$var reg 1 +" itlb_read $end
$var reg 6 ," itlb_tail [5:0] $end
$var reg 32 -" itlb_va [31:0] $end
$var reg 20 ." itlb_valids [19:0] $end
$var reg 1 /" itlb_wait $end
$var reg 1 0" mem_reset $end
$var reg 128 1" out_dmem [127:0] $end
$var reg 128 2" out_imem [127:0] $end
$var reg 32 3" page_table_root_addr [31:0] $end
$var reg 1 4" page_walking_dtlb $end
$var reg 1 5" page_walking_itlb $end
$var reg 32 6" pc [31:0] $end
$var reg 32 7" pc_in [31:0] $end
$var reg 1 8" pc_jump $end
$var reg 1 9" reset $end
$var reg 1 :" rgs_enable $end
$var reg 32 ;" rm0 [31:0] $end
$var reg 32 <" rm1 [31:0] $end
$var reg 1 =" rm4 $end
$var reg 2 >" stld_size_in [1:0] $end
$var reg 20 ?" va_to_pa [19:0] $end
$var reg 1 @" was_reseted $end
$var integer 32 A" dwait_cycles [31:0] $end
$var integer 32 B" i [31:0] $end
$var integer 32 C" iwait_cycles [31:0] $end
$scope function calc_func $end
$var reg 7 D" op [6:0] $end
$upscope $end
$scope function needs_write $end
$var reg 6 E" op [5:0] $end
$upscope $end
$scope function try_bypass $end
$var reg 5 F" adr [4:0] $end
$upscope $end
$scope module clk_gen $end
$var parameter 32 G" PERIOD $end
$var reg 1 8 clk $end
$upscope $end
$scope module f_instr_ff $end
$var wire 1 8 clk $end
$var wire 1 & enable $end
$var wire 32 H" in [31:0] $end
$var wire 1 9" reset $end
$var parameter 32 I" BITS $end
$var reg 32 J" out [31:0] $end
$upscope $end
$scope module ff_a_exception $end
$var wire 1 8 clk $end
$var wire 1 ! enable $end
$var wire 1 9" reset $end
$var wire 5 K" in [4:0] $end
$var parameter 32 L" BITS $end
$var reg 5 M" out [4:0] $end
$upscope $end
$scope module ff_a_is_load $end
$var wire 1 8 clk $end
$var wire 1 ! enable $end
$var wire 1 9" reset $end
$var wire 1 5 in $end
$var parameter 32 N" BITS $end
$var reg 1 J out $end
$upscope $end
$scope module ff_a_is_store $end
$var wire 1 8 clk $end
$var wire 1 ! enable $end
$var wire 1 9" reset $end
$var wire 1 4 in $end
$var parameter 32 O" BITS $end
$var reg 1 I out $end
$upscope $end
$scope module ff_a_jump $end
$var wire 1 8 clk $end
$var wire 1 ! enable $end
$var wire 1 S in $end
$var wire 1 9" reset $end
$var parameter 32 P" BITS $end
$var reg 1 H out $end
$upscope $end
$scope module ff_a_nop $end
$var wire 1 8 clk $end
$var wire 1 ! enable $end
$var wire 1 Q" in $end
$var wire 1 9" reset $end
$var parameter 32 R" BITS $end
$var reg 1 G out $end
$upscope $end
$scope module ff_a_pc $end
$var wire 1 8 clk $end
$var wire 1 ! enable $end
$var wire 1 9" reset $end
$var wire 32 S" in [31:0] $end
$var parameter 32 T" BITS $end
$var reg 32 U" out [31:0] $end
$upscope $end
$scope module ff_a_r_d_a $end
$var wire 1 8 clk $end
$var wire 1 ! enable $end
$var wire 1 9" reset $end
$var wire 5 V" in [4:0] $end
$var parameter 32 W" BITS $end
$var reg 5 X" out [4:0] $end
$upscope $end
$scope module ff_a_r_d_a_val $end
$var wire 1 8 clk $end
$var wire 1 ! enable $end
$var wire 1 9" reset $end
$var wire 32 Y" in [31:0] $end
$var parameter 32 Z" BITS $end
$var reg 32 [" out [31:0] $end
$upscope $end
$scope module ff_a_res $end
$var wire 1 8 clk $end
$var wire 1 ! enable $end
$var wire 32 \" in [31:0] $end
$var wire 1 9" reset $end
$var parameter 32 ]" BITS $end
$var reg 32 ^" out [31:0] $end
$upscope $end
$scope module ff_a_stld_size $end
$var wire 1 8 clk $end
$var wire 1 " enable $end
$var wire 1 9" reset $end
$var wire 2 _" in [1:0] $end
$var parameter 32 `" BITS $end
$var reg 2 a" out [1:0] $end
$upscope $end
$scope module ff_a_swap_rm4 $end
$var wire 1 8 clk $end
$var wire 1 ! enable $end
$var wire 1 V in $end
$var wire 1 9" reset $end
$var parameter 32 b" BITS $end
$var reg 1 A out $end
$upscope $end
$scope module ff_a_w $end
$var wire 1 8 clk $end
$var wire 1 ! enable $end
$var wire 1 9" reset $end
$var wire 1 - in $end
$var parameter 32 c" BITS $end
$var reg 1 @ out $end
$upscope $end
$scope module ff_c_exception $end
$var wire 1 8 clk $end
$var wire 1 X enable $end
$var wire 5 d" in [4:0] $end
$var wire 1 9" reset $end
$var parameter 32 e" BITS $end
$var reg 5 f" out [4:0] $end
$upscope $end
$scope module ff_c_nop $end
$var wire 1 8 clk $end
$var wire 1 X enable $end
$var wire 1 g" in $end
$var wire 1 9" reset $end
$var parameter 32 h" BITS $end
$var reg 1 > out $end
$upscope $end
$scope module ff_c_pc $end
$var wire 1 8 clk $end
$var wire 1 X enable $end
$var wire 32 i" in [31:0] $end
$var wire 1 9" reset $end
$var parameter 32 j" BITS $end
$var reg 32 k" out [31:0] $end
$upscope $end
$scope module ff_c_r_d_a $end
$var wire 1 8 clk $end
$var wire 1 X enable $end
$var wire 5 l" in [4:0] $end
$var wire 1 9" reset $end
$var parameter 32 m" BITS $end
$var reg 5 n" out [4:0] $end
$upscope $end
$scope module ff_c_res $end
$var wire 1 8 clk $end
$var wire 1 X enable $end
$var wire 32 o" in [31:0] $end
$var wire 1 9" reset $end
$var parameter 32 p" BITS $end
$var reg 32 q" out [31:0] $end
$upscope $end
$scope module ff_c_swap_rm4 $end
$var wire 1 8 clk $end
$var wire 1 X enable $end
$var wire 1 A in $end
$var wire 1 9" reset $end
$var parameter 32 r" BITS $end
$var reg 1 : out $end
$upscope $end
$scope module ff_c_w $end
$var wire 1 8 clk $end
$var wire 1 X enable $end
$var wire 1 @ in $end
$var wire 1 9" reset $end
$var parameter 32 s" BITS $end
$var reg 1 9 out $end
$upscope $end
$scope module ff_d_exception $end
$var wire 1 8 clk $end
$var wire 1 " enable $end
$var wire 1 9" reset $end
$var wire 5 t" in [4:0] $end
$var parameter 32 u" BITS $end
$var reg 5 v" out [4:0] $end
$upscope $end
$scope module ff_d_func $end
$var wire 1 8 clk $end
$var wire 1 " enable $end
$var wire 7 w" in [6:0] $end
$var wire 1 9" reset $end
$var parameter 32 x" BITS $end
$var reg 7 y" out [6:0] $end
$upscope $end
$scope module ff_d_is_load $end
$var wire 1 8 clk $end
$var wire 1 " enable $end
$var wire 1 ` in $end
$var wire 1 9" reset $end
$var parameter 32 z" BITS $end
$var reg 1 5 out $end
$upscope $end
$scope module ff_d_is_store $end
$var wire 1 8 clk $end
$var wire 1 " enable $end
$var wire 1 a in $end
$var wire 1 9" reset $end
$var parameter 32 {" BITS $end
$var reg 1 4 out $end
$upscope $end
$scope module ff_d_nop $end
$var wire 1 8 clk $end
$var wire 1 " enable $end
$var wire 1 |" in $end
$var wire 1 9" reset $end
$var parameter 32 }" BITS $end
$var reg 1 3 out $end
$upscope $end
$scope module ff_d_pc $end
$var wire 1 8 clk $end
$var wire 1 " enable $end
$var wire 1 9" reset $end
$var wire 32 ~" in [31:0] $end
$var parameter 32 !# BITS $end
$var reg 32 "# out [31:0] $end
$upscope $end
$scope module ff_d_r_a $end
$var wire 1 8 clk $end
$var wire 1 " enable $end
$var wire 32 ## in [31:0] $end
$var wire 1 9" reset $end
$var parameter 32 $# BITS $end
$var reg 32 %# out [31:0] $end
$upscope $end
$scope module ff_d_r_b $end
$var wire 1 8 clk $end
$var wire 1 " enable $end
$var wire 32 &# in [31:0] $end
$var wire 1 9" reset $end
$var parameter 32 '# BITS $end
$var reg 32 (# out [31:0] $end
$upscope $end
$scope module ff_d_r_d_a $end
$var wire 1 8 clk $end
$var wire 1 " enable $end
$var wire 5 )# in [4:0] $end
$var wire 1 9" reset $end
$var parameter 32 *# BITS $end
$var reg 5 +# out [4:0] $end
$upscope $end
$scope module ff_d_r_d_a_val $end
$var wire 1 8 clk $end
$var wire 1 " enable $end
$var wire 32 ,# in [31:0] $end
$var wire 1 9" reset $end
$var parameter 32 -# BITS $end
$var reg 32 .# out [31:0] $end
$upscope $end
$scope module ff_d_w $end
$var wire 1 8 clk $end
$var wire 1 " enable $end
$var wire 1 g in $end
$var wire 1 9" reset $end
$var parameter 32 /# BITS $end
$var reg 1 - out $end
$upscope $end
$scope module ff_f_exception $end
$var wire 1 8 clk $end
$var wire 1 & enable $end
$var wire 5 0# in [4:0] $end
$var wire 1 9" reset $end
$var parameter 32 1# BITS $end
$var reg 5 2# out [4:0] $end
$upscope $end
$scope module ff_f_nop $end
$var wire 1 8 clk $end
$var wire 1 & enable $end
$var wire 1 { in $end
$var wire 1 9" reset $end
$var parameter 32 3# BITS $end
$var reg 1 * out $end
$upscope $end
$scope module ff_f_pc $end
$var wire 1 8 clk $end
$var wire 1 $ enable $end
$var wire 32 4# in [31:0] $end
$var wire 1 9" reset $end
$var parameter 32 5# BITS $end
$var reg 32 6# out [31:0] $end
$upscope $end
$scope module ff_stld_size $end
$var wire 1 8 clk $end
$var wire 1 " enable $end
$var wire 2 7# in [1:0] $end
$var wire 1 9" reset $end
$var parameter 32 8# BITS $end
$var reg 2 9# out [1:0] $end
$upscope $end
$scope begin $unm_blk_102 $end
$var integer 32 :# j [31:0] $end
$upscope $end
$scope task print_pipeline $end
$upscope $end
$upscope $end
$enddefinitions $end
$comment Show the parameter values. $end
$dumpall
b10 8#
b100000 5#
b1 3#
b101 1#
b1 /#
b100000 -#
b101 *#
b100000 '#
b100000 $#
b100000 !#
b1 }"
b1 {"
b1 z"
b111 x"
b101 u"
b1 s"
b1 r"
b100000 p"
b101 m"
b100000 j"
b1 h"
b101 e"
b1 c"
b1 b"
b10 `"
b100000 ]"
b100000 Z"
b101 W"
b100000 T"
b1 R"
b1 P"
b1 O"
b1 N"
b101 L"
b100000 I"
b1010 G"
$end
#0
$dumpvars
bx :#
bx 9#
bx 7#
bx 6#
b1000000000000 4#
bx 2#
b0 0#
bx .#
bx ,#
bx +#
bx )#
bx (#
bx &#
bx %#
bx ##
bx "#
bx ~"
x|"
bx y"
bx w"
bx v"
bx t"
bx q"
bx o"
bx n"
bx l"
bx k"
bx i"
xg"
bx f"
b0 d"
bx a"
bx _"
bx ^"
bx \"
bx ["
bx Y"
bx X"
bx V"
bx U"
bx S"
xQ"
bx M"
bx K"
bx J"
bx H"
bx F"
bx E"
bx D"
bx C"
bx B"
bx A"
1@"
b1000000000000000 ?"
bx >"
1="
bx <"
bx ;"
0:"
09"
08"
b1000000000000 7"
b1000000000000 6"
x5"
x4"
bx 3"
bx 2"
bx 1"
x0"
x/"
bx ."
bx -"
bx ,"
x+"
x*"
x)"
bx ("
bx '"
b0 &"
x%"
0$"
bx #"
x""
x!"
bx ~
x}
0|
1{
bx z
b0 y
xx
bx w
bx v
bx u
xt
xs
bx r
bx q
xp
bx o
xn
bx m
bx l
0k
0j
xi
0h
xg
bx f
bx e
bx d
bx c
0b
xa
x`
bx _
b0 ^
bx ]
0\
bx [
0Z
b0 Y
1X
0W
0V
bx U
0T
xS
b0 R
0Q
bx P
0O
bx N
bx M
bx L
bx K
xJ
xI
xH
xG
bx F
bx E
bx D
bx C
bx B
xA
x@
bx ?
x>
bx =
bx <
bx ;
x:
x9
08
bx 7
bx 6
x5
x4
x3
bx 2
bx 1
bx 0
bx /
bx .
x-
bx ,
bx +
x*
bx )
bx (
0'
1&
1%
1$
b0 #
1"
1!
$end
#1000
0|"
0Q"
0g"
b0 ,
b0 t"
b0 2#
b0 +
b0 J"
b0 )
b0 ~"
b0 6#
0*
b0 2
b0 S"
b0 "#
b0 /
b0 V"
b0 +#
b0 .
b0 Y"
b0 .#
b0 (
b0 _"
b0 9#
0-
05
04
b0 6
b0 y"
b0 1
b0 %#
b0 0
b0 (#
b0 7
b0 K"
b0 v"
03
b0 F
b0 U"
b0 i"
b0 E
b0 X"
b0 l"
b0 D
b0 ["
b0 B
b0 a"
0@
0J
0I
b0 C
b0 ^"
0H
0G
0A
b0 K
b0 M"
b0 =
b0 k"
b0 <
b0 n"
09
b0 ;
b0 q"
0>
0:
b0 ?
b0 f"
0{
b0 <"
b0 ;"
0%"
0p
0n
0i
b0 w
04"
b0 u
1x
0s
b0 r
b0 q
b0 ."
05"
b0 ,"
1/"
0*"
b101000000000000 3"
b111111111111111111111111111111111 ("
b111111111111111111111111111111111 '"
b10010011111111 :#
b11111111111111111111111111111111 C"
0!"
b11 B"
1'
19"
#1010
1{
#1100
0S
#1200
b100000 B"
#1410
0{
#2000
0'
09"
#5000
0@"
bx ;
bx q"
bx C
bx ^"
bx 0
bx (#
bx 1
bx %#
bx 6
bx y"
x4
x5
x-
bx (
bx _"
bx 9#
bx .
bx Y"
bx .#
bx /
bx V"
bx +#
b1000000000000 )
b1000000000000 ~"
b1000000000000 6#
bx +
bx J"
18
#5020
1+"
b1000000000000 -"
#5320
1!"
b1000000000000 ~
0+"
#5400
b0 U
b0 \"
#5510
b0 _
b0 w"
#5520
b100000000 P
b0 C"
b0xxxxxxxxxxxxxxxxxxxx d
b0xxxxxxxxxxxxxxxxxxxx &#
1g
1%"
b100000000 #"
0$
1{
1|
#5530
0!"
#10000
08
#15000
1|"
1*
b1000000000000 2
b1000000000000 S"
b1000000000000 "#
1-
b0 6
b0 y"
b0xxxxxxxxxxxxxxxxxxxx 0
b0xxxxxxxxxxxxxxxxxxxx (#
bx E
bx X"
bx l"
bx D
bx ["
bx B
bx a"
x@
xJ
xI
b0 C
b0 ^"
0{
b1 C"
18
#15010
1{
#15101
b0 [
b0 o"
#15400
bx U
bx \"
#20000
08
#25000
1Q"
b0 ;
b0 q"
x9
bx <
bx n"
bx C
bx ^"
1@
b1000000000000 F
b1000000000000 U"
b1000000000000 i"
13
0{
b10 C"
18
#25010
b1100110000000000000000000000000 2"
1{
#25030
1$"
b11111111111111111111111111111111 C"
#25101
bx [
bx o"
#30000
08
#35000
1g"
1G
b1000000000000 =
b1000000000000 k"
19
bx ;
bx q"
0{
18
#35010
1""
#35020
b1100110000000000000000000000000 z
b1100110000000000000000000000000 H"
#35030
1$
0""
0$"
0|
0%"
#35410
b100000 B"
#40000
08
#45000
0|"
b1000000000100 6"
b1000000000100 4#
1>
0*
b1100110000000000000000000000000 +
b1100110000000000000000000000000 J"
18
#45020
1+"
b1000000000100 -"
#45320
b0 z
b0 H"
1!"
b1000000000100 ~
0+"
#45330
0!"
#45510
b100001 _
b100001 w"
b110011 D"
#45520
b0 d
b0 &#
0g
0a
0`
b0 e
b0 )#
b110011 E"
b0 F"
#50000
08
#55000
0Q"
b0 +
b0 J"
b1000000000100 )
b1000000000100 ~"
b1000000000100 6#
b0 /
b0 V"
b0 +#
0-
05
04
b100001 6
b100001 y"
b0 0
b0 (#
03
b1000000001000 6"
b1000000001000 4#
18
#55020
1+"
b1000000001000 -"
#55320
1!"
b1000000001000 ~
0+"
#55330
0!"
#55400
b0 U
b0 \"
1S
1V
#55510
b0 _
b0 w"
b0 D"
#55520
bx d
bx &#
1g
0$
x&
1|"
b0 E"
1h
1b
#60000
08
#65000
0g"
1Q"
1A
0G
1H
b0 C
b0 ^"
0I
0J
0@
b0 E
b0 X"
b0 l"
13
bx 0
bx (#
b0 6
b0 y"
1-
b1000000000100 2
b1000000000100 S"
b1000000000100 "#
18
#65020
1+"
#65100
0S
0V
#65101
b0 [
b0 o"
#65200
1{
1T
b0 7"
18"
#65201
0="
#65320
0+"
#65460
1$
1&
0|"
0b
0h
#65520
b0 d
b0 &#
b0 c
b0 ##
#70000
08
#75000
1|"
1g"
b1000000001000 )
b1000000001000 ~"
b1000000001000 6#
1*
b0 1
b0 %#
b0 0
b0 (#
03
b1000000000100 F
b1000000000100 U"
b1000000000100 i"
1@
0H
1G
0A
b0 <
b0 n"
09
b0 ;
b0 q"
0>
1:
08"
b0 6"
b0 4#
0{
18
#75020
1+"
b0 -"
#75100
0Q"
0T
#75320
0)"
0+"
#75330
b10100 B"
#75340
b1 y
b1 0#
b0 ("
b0 '"
#80000
08
#85000
0g"
1Q"
0|"
b100 6"
b100 4#
0:
1>
19
b1000000000100 =
b1000000000100 k"
0G
13
b1000000001000 2
b1000000001000 S"
b1000000001000 "#
0*
b0 )
b0 ~"
b0 6#
b1 ,
b1 t"
b1 2#
b0 y
b0 0#
18
#85020
1+"
b100 -"
#85320
0+"
#85330
b10100 B"
#85540
1{
#90000
08
#95000
1|"
0Q"
1g"
b0 ,
b0 t"
b0 2#
b100 )
b100 ~"
b100 6#
1*
b0 2
b0 S"
b0 "#
b1 7
b1 K"
b1 v"
03
b1000000001000 F
b1000000001000 U"
b1000000001000 i"
1G
0>
b1000 6"
b1000 4#
0{
18
#95020
1+"
b1000 -"
#95100
1b
1{
#95320
0+"
#95410
b100000 B"
#100000
08
#105000
0g"
1Q"
b1100 6"
b1100 4#
1>
b1000000001000 =
b1000000001000 k"
b1 K
b1 M"
0G
b0 F
b0 U"
b0 i"
13
b0 7
b0 K"
b0 v"
b100 2
b100 S"
b100 "#
b1000 )
b1000 ~"
b1000 6#
0{
18
#105001
b1 Y
b1 d"
#105010
1T
1{
#105020
1+"
b1100 -"
#105100
0T
#105320
0+"
#110000
08
#115000
1g"
b1100 )
b1100 ~"
b1100 6#
b1000 2
b1000 S"
b1000 "#
b100 F
b100 U"
b100 i"
1G
b0 K
b0 M"
b0 =
b0 k"
0>
b1 ?
b1 f"
b10000 6"
b10000 4#
0{
18
#115001
b0 Y
b0 d"
#115020
1+"
b10000 -"
#115320
0+"
#115330
b10100 B"
#115400
1{
1="
18"
b10000000000000 7"
#120000
08
#125000
08"
b10000000000000 6"
b10000000000000 4#
b0 ?
b0 f"
1>
b100 =
b100 k"
b1000 F
b1000 U"
b1000 i"
b1100 2
b1100 S"
b1100 "#
b10000 )
b10000 ~"
b10000 6#
0{
18
#125020
1+"
b10000000000000 -"
#125320
1!"
b10000000000000 ~
0+"
#125520
b1000000000 P
b0 C"
1%"
b1000000000 #"
0$
1{
1|
#125530
0!"
#130000
08
#135000
b10000 2
b10000 S"
b10000 "#
b1100 F
b1100 U"
b1100 i"
b1000 =
b1000 k"
0{
b1 C"
18
#135010
1{
#140000
08
#145000
b1100 =
b1100 k"
b10000 F
b10000 U"
b10000 i"
0{
b10 C"
18
#145010
b110011000000000000000000000000001100100000000000000000000000000 2"
1{
#145030
1$"
b11111111111111111111111111111111 C"
#150000
08
#155000
b10000 =
b10000 k"
0{
18
#155010
1""
#155020
b1100100000000000000000000000000 z
b1100100000000000000000000000000 H"
#155030
1$
0""
0$"
0|
0%"
#160000
08
#165000
b10000000000100 6"
b10000000000100 4#
0*
b10000000000000 )
b10000000000000 ~"
b10000000000000 6#
b1100100000000000000000000000000 +
b1100100000000000000000000000000 J"
18
#165020
1+"
b10000000000100 -"
#165320
b1100110000000000000000000000000 z
b1100110000000000000000000000000 H"
1!"
b10000000000100 ~
0+"
#165330
0!"
#165460
0|"
0b
#165510
b100000 _
b100000 w"
b110010 D"
#165520
0g
bx c
bx ##
b110010 E"
#170000
08
#175000
0Q"
b1100110000000000000000000000000 +
b1100110000000000000000000000000 J"
b10000000000100 )
b10000000000100 ~"
b10000000000100 6#
b10000000000000 2
b10000000000000 S"
b10000000000000 "#
0-
b100000 6
b100000 y"
bx 1
bx %#
03
b10000000001000 6"
b10000000001000 4#
18
#175020
1+"
b10000000001000 -"
#175320
b0 z
b0 H"
1!"
b10000000001000 ~
0+"
#175330
0!"
#175410
b1 ,"
#175510
b100001 _
b100001 w"
b110011 D"
#175520
b110011 E"
#180000
08
#185000
0g"
b10000000001100 6"
b10000000001100 4#
0G
0@
b10000000000000 F
b10000000000000 U"
b10000000000000 i"
b100001 6
b100001 y"
b10000000000100 2
b10000000000100 S"
b10000000000100 "#
b10000000001000 )
b10000000001000 ~"
b10000000001000 6#
b0 +
b0 J"
18
#185020
1+"
b10000000001100 -"
#185320
1!"
b10000000001100 ~
0+"
#185330
0!"
#185400
1S
1V
#185510
b0 _
b0 w"
b0 D"
#185520
bx d
bx &#
1g
0$
x&
1|"
b0 E"
1h
1b
#190000
08
#195000
1Q"
b10000000001000 2
b10000000001000 S"
b10000000001000 "#
1-
b0 6
b0 y"
bx 0
bx (#
13
b10000000000100 F
b10000000000100 U"
b10000000000100 i"
1H
1A
b10000000000000 =
b10000000000000 k"
09
0>
18
#195020
1+"
#195100
0S
0V
#195200
1{
1T
b0 7"
18"
#195201
0="
b111111111111111111111111111111111 '"
b111111111111111111111111111111111 ("
#195320
0+"
#195460
1$
1&
0|"
0b
0h
#195520
b0 d
b0 &#
b0 c
b0 ##
#200000
08
#205000
1g"
1|"
08"
b0 6"
b0 4#
1:
b10000000000100 =
b10000000000100 k"
0A
1G
0H
1@
b10000000001000 F
b10000000001000 U"
b10000000001000 i"
03
b0 0
b0 (#
b0 1
b0 %#
1*
b10000000001100 )
b10000000001100 ~"
b10000000001100 6#
0{
18
#205020
1+"
b0 -"
#205100
0Q"
0T
#205320
0+"
#205330
b1000000000000000 ~
1)"
b10100 B"
#205340
1!"
#205540
b100000000000 P
b0 C"
1%"
b100000000000 #"
0$
1{
1|
#205550
0!"
#210000
08
#215000
1Q"
0g"
b10000000001100 2
b10000000001100 S"
b10000000001100 "#
13
0G
b10000000001000 =
b10000000001000 k"
19
1>
0:
0{
b1 C"
18
#215010
1{
#220000
08
#225000
1g"
0>
1G
b10000000001100 F
b10000000001100 U"
b10000000001100 i"
0{
b10 C"
18
#225010
b101110010000000000000010000000001011100011000000100011111111110010111000100000000000000000000000101110000100000000000000000000 2"
1{
#225030
1$"
b11111111111111111111111111111111 C"
#225410
b100000 B"
#230000
08
#235000
b10000000001100 =
b10000000001100 k"
1>
0{
18
#235010
1""
#235020
b101110000100000000000000000000 z
b101110000100000000000000000000 H"
#235030
1$
0""
0$"
0|
0%"
#240000
08
#245000
0|"
b100 6"
b100 4#
0*
b0 )
b0 ~"
b0 6#
b101110000100000000000000000000 +
b101110000100000000000000000000 J"
18
#245020
1+"
b100 -"
#245320
0)"
0+"
#245330
b1000000000000100 ~
1)"
b10100 B"
#245340
b101110001000000000000000000000 z
b101110001000000000000000000000 H"
1!"
#245350
0!"
#245510
b10001 _
b10001 w"
b10111 D"
#245520
b1000000000000000 d
b1000000000000000 &#
b1 e
b1 )#
b10111 E"
#250000
08
#255000
0Q"
b101110001000000000000000000000 +
b101110001000000000000000000000 J"
b100 )
b100 ~"
b100 6#
b0 2
b0 S"
b0 "#
b1 /
b1 V"
b1 +#
b10001 6
b10001 y"
b1000000000000000 0
b1000000000000000 (#
03
b1000 6"
b1000 4#
18
#255020
1+"
b1000 -"
#255320
0)"
0+"
#255330
b1000000000001000 ~
1)"
b10100 B"
#255340
b101110001100000010001111111111 z
b101110001100000010001111111111 H"
1!"
#255350
0!"
#255520
b10000000000000000 d
b10000000000000000 &#
b10 e
b10 )#
#260000
08
#265000
0g"
b1100 6"
b1100 4#
0G
b1 E
b1 X"
b1 l"
b0 F
b0 U"
b0 i"
b10000000000000000 0
b10000000000000000 (#
b10 /
b10 V"
b10 +#
b100 2
b100 S"
b100 "#
b1000 )
b1000 ~"
b1000 6#
b101110001100000010001111111111 +
b101110001100000010001111111111 J"
18
#265020
1+"
b1100 -"
#265320
0)"
0+"
#265330
b1000000000001100 ~
1)"
b10100 B"
#265340
b101110010000000000000010000000 z
b101110010000000000000010000000 H"
1!"
#265350
0!"
#265520
b11010001111111111 d
b11010001111111111 &#
b10001111111111 c
b10001111111111 ##
b11 e
b11 )#
#270000
08
#275000
b101110010000000000000010000000 +
b101110010000000000000010000000 J"
b1100 )
b1100 ~"
b1100 6#
b1000 2
b1000 S"
b1000 "#
b11 /
b11 V"
b11 +#
b10001111111111 1
b10001111111111 %#
b11010001111111111 0
b11010001111111111 (#
b100 F
b100 U"
b100 i"
b10 E
b10 X"
b10 l"
b0 =
b0 k"
b1 <
b1 n"
0>
b10000 6"
b10000 4#
18
#275020
1+"
b10000 -"
#275320
0)"
0+"
#275330
b1000000000010000 ~
1)"
b10100 B"
#275340
1!"
#275400
b10001111111111 U
b10001111111111 \"
#275410
b100000 B"
#275520
b100000000010000000 d
b100000000010000000 &#
b10000000 c
b10000000 ##
b100 e
b100 )#
#275540
b100000000001 P
b0 C"
1%"
b100000000001 #"
0$
1{
1|
#275550
0!"
#280000
08
#285000
1|"
b10 <
b10 n"
b100 =
b100 k"
b10001111111111 C
b10001111111111 ^"
b11 E
b11 X"
b11 l"
b1000 F
b1000 U"
b1000 i"
b100000000010000000 0
b100000000010000000 (#
b10000000 1
b10000000 %#
b100 /
b100 V"
b100 +#
b1100 2
b1100 S"
b1100 "#
1*
0{
b1 C"
18
#285010
1{
#285101
b10001111111111 [
b10001111111111 o"
#285400
b10000000 U
b10000000 \"
#285410
b100000 B"
#290000
08
#295000
1Q"
13
b1100 F
b1100 U"
b1100 i"
b100 E
b100 X"
b100 l"
b10000000 C
b10000000 ^"
b1000 =
b1000 k"
b11 <
b11 n"
b10001111111111 ;
b10001111111111 q"
0{
b10 C"
18
#295010
b101110100000000000000000000001001011100111000000000000000001000010111001100000000000000000000000101110010100000000000000000000 2"
1{
#295030
1$"
b11111111111111111111111111111111 C"
#295101
b10000000 [
b10000000 o"
#295410
b100000 B"
#300000
08
#305000
1g"
b10000000 ;
b10000000 q"
b100 <
b100 n"
b1100 =
b1100 k"
1G
0{
18
#305010
1""
#305020
b101110010100000000000000000000 z
b101110010100000000000000000000 H"
#305030
1$
0""
0$"
0|
0%"
#305410
b100000 B"
#310000
08
#315000
0|"
b101110010100000000000000000000 +
b101110010100000000000000000000 J"
b10000 )
b10000 ~"
b10000 6#
0*
1>
b10100 6"
b10100 4#
18
#315020
1+"
b10100 -"
#315320
0)"
0+"
