src/test.vcd
$date
	Sat Jan 11 15:24:59 2025
$end
$version
	Icarus Verilog
$end
$timescale
	1ps
$end
$scope module processor_tb $end
$var wire 1 ! a_enable $end
$var wire 1 " d_enable $end
$var wire 32 # data [31:0] $end
$var wire 1 $ enable_inc $end
$var wire 1 % enable_pc $end
$var wire 1 & f_enable $end
$var wire 1 ' m1_enable $end
$var wire 1 ( m2_enable $end
$var wire 1 ) m3_enable $end
$var wire 1 * m4_enable $end
$var wire 1 + m5_enable $end
$var wire 1 , reset_pc $end
$var wire 1 - wb_enable $end
$var wire 1 . t_w $end
$var wire 2 / t_stld_size [1:0] $end
$var wire 32 0 t_res [31:0] $end
$var wire 32 1 t_r_d_a_val [31:0] $end
$var wire 5 2 t_r_d_a [4:0] $end
$var wire 32 3 t_pc [31:0] $end
$var wire 1 4 t_nop $end
$var wire 1 5 t_jump $end
$var wire 1 6 t_is_store $end
$var wire 1 7 t_is_load $end
$var wire 2 8 stld_size [1:0] $end
$var wire 5 9 m5_tail [4:0] $end
$var wire 32 : m5_res [31:0] $end
$var wire 5 ; m5_r_d_a [4:0] $end
$var wire 32 < m5_pc [31:0] $end
$var wire 1 = m5_nop $end
$var wire 5 > m4_tail [4:0] $end
$var wire 5 ? m4_r_d_a [4:0] $end
$var wire 32 @ m4_r_b [31:0] $end
$var wire 32 A m4_r_a [31:0] $end
$var wire 32 B m4_pc [31:0] $end
$var wire 1 C m4_nop $end
$var wire 5 D m3_tail [4:0] $end
$var wire 5 E m3_r_d_a [4:0] $end
$var wire 32 F m3_r_b [31:0] $end
$var wire 32 G m3_r_a [31:0] $end
$var wire 32 H m3_pc [31:0] $end
$var wire 1 I m3_nop $end
$var wire 5 J m2_tail [4:0] $end
$var wire 5 K m2_r_d_a [4:0] $end
$var wire 32 L m2_r_b [31:0] $end
$var wire 32 M m2_r_a [31:0] $end
$var wire 32 N m2_pc [31:0] $end
$var wire 1 O m2_nop $end
$var wire 5 P m1_tail [4:0] $end
$var wire 5 Q m1_r_d_a [4:0] $end
$var wire 32 R m1_r_b [31:0] $end
$var wire 32 S m1_r_a [31:0] $end
$var wire 32 T m1_pc [31:0] $end
$var wire 1 U m1_nop $end
$var wire 1 V f_wait_for_cache $end
$var wire 5 W f_tail_ctr [4:0] $end
$var wire 5 X f_tail [4:0] $end
$var wire 32 Y f_pc [31:0] $end
$var wire 1 Z f_nop $end
$var wire 32 [ f_instr [31:0] $end
$var wire 5 \ f_exception [4:0] $end
$var wire 1 ] d_w $end
$var wire 5 ^ d_tail [4:0] $end
$var wire 32 _ d_r_d_a_val [31:0] $end
$var wire 5 ` d_r_d_a [4:0] $end
$var wire 32 a d_r_b [31:0] $end
$var wire 32 b d_r_a [31:0] $end
$var wire 32 c d_pc [31:0] $end
$var wire 1 d d_nop $end
$var wire 1 e d_is_store $end
$var wire 1 f d_is_load $end
$var wire 7 g d_func [6:0] $end
$var wire 5 h d_exception [4:0] $end
$var wire 1 i clk $end
$var wire 1 j c_w $end
$var wire 1 k c_swap_rm4 $end
$var wire 32 l c_res [31:0] $end
$var wire 5 m c_r_d_a [4:0] $end
$var wire 32 n c_pc [31:0] $end
$var wire 1 o c_nop $end
$var wire 5 p c_exception [4:0] $end
$var wire 1 q a_w $end
$var wire 5 r a_tail [4:0] $end
$var wire 1 s a_swap_rm4 $end
$var wire 2 t a_stld_size [1:0] $end
$var wire 32 u a_res [31:0] $end
$var wire 32 v a_r_d_a_val [31:0] $end
$var wire 5 w a_r_d_a [4:0] $end
$var wire 32 x a_pc [31:0] $end
$var wire 1 y a_nop $end
$var wire 1 z a_jump $end
$var wire 1 { a_is_store $end
$var wire 1 | a_is_load $end
$var wire 5 } a_exception [4:0] $end
$var reg 128 ~ __dmem_in_d_buffer [127:0] $end
$var reg 33 !" __dmem_r_a_buffer [32:0] $end
$var reg 33 "" __dmem_w_a_buffer [32:0] $end
$var reg 1 #" __dwrite_or_read $end
$var reg 33 $" __imem_a_buffer [32:0] $end
$var reg 1 %" __iwrite_or_read $end
$var reg 5 &" a_exception_in [4:0] $end
$var reg 1 '" a_jump_in $end
$var reg 1 (" a_nop_in $end
$var reg 32 )" a_res_in [31:0] $end
$var reg 1 *" a_swap_rm4_in $end
$var reg 1 +" a_wait $end
$var reg 1 ," c_enable $end
$var reg 5 -" c_exception_in [4:0] $end
$var reg 1 ." c_nop_in $end
$var reg 32 /" c_res_in [31:0] $end
$var reg 1 0" c_wait $end
$var reg 1 1" cache_finished $end
$var reg 32 2" cache_result [31:0] $end
$var reg 32 3" d_addr [31:0] $end
$var reg 5 4" d_exception_in [4:0] $end
$var reg 7 5" d_func_in [6:0] $end
$var reg 1 6" d_is_load_in $end
$var reg 1 7" d_is_store_in $end
$var reg 1 8" d_nop_in $end
$var reg 32 9" d_r_a_in [31:0] $end
$var reg 32 :" d_r_b_in [31:0] $end
$var reg 5 ;" d_r_d_a_in [4:0] $end
$var reg 32 <" d_r_d_a_val_in [31:0] $end
$var reg 1 =" d_w_in $end
$var reg 1 >" d_wait $end
$var reg 1 ?" dcache_read $end
$var reg 1 @" dhit $end
$var reg 1 A" dmem_finished $end
$var reg 128 B" dmem_in_data [127:0] $end
$var reg 33 C" dmem_r_address [32:0] $end
$var reg 1 D" dmem_read $end
$var reg 33 E" dmem_w_address [32:0] $end
$var reg 1 F" dmem_write $end
$var reg 32 G" drm0 [31:0] $end
$var reg 32 H" drm1 [31:0] $end
$var reg 1 I" dtlb_miss $end
$var reg 1 J" dtlb_read $end
$var reg 6 K" dtlb_tail [5:0] $end
$var reg 32 L" dtlb_va [31:0] $end
$var reg 20 M" dtlb_valids [19:0] $end
$var reg 1 N" dtlb_wait $end
$var reg 5 O" f_exception_in [4:0] $end
$var reg 32 P" f_instr_in [31:0] $end
$var reg 1 Q" f_nop_in $end
$var reg 1 R" f_rob_full $end
$var reg 5 S" f_tail_ctr_in [4:0] $end
$var reg 1 T" f_wait $end
$var reg 1 U" f_wait_for_cache_in $end
$var reg 1 V" hit $end
$var reg 32 W" iaddr [31:0] $end
$var reg 1 X" icache_read $end
$var reg 1 Y" icache_write $end
$var reg 33 Z" imem_address [32:0] $end
$var reg 1 [" imem_finished $end
$var reg 1 \" imem_read $end
$var reg 32 ]" in_data [31:0] $end
$var reg 33 ^" irm0 [32:0] $end
$var reg 33 _" irm1 [32:0] $end
$var reg 1 `" itlb_hit $end
$var reg 1 a" itlb_miss $end
$var reg 1 b" itlb_read $end
$var reg 6 c" itlb_tail [5:0] $end
$var reg 32 d" itlb_va [31:0] $end
$var reg 20 e" itlb_valids [19:0] $end
$var reg 1 f" itlb_wait $end
$var reg 1 g" m1_nop_in $end
$var reg 32 h" m1_pc_in [31:0] $end
$var reg 32 i" m1_r_a_in [31:0] $end
$var reg 32 j" m1_r_b_in [31:0] $end
$var reg 1 k" m1_wait $end
$var reg 1 l" m2_wait $end
$var reg 1 m" m3_wait $end
$var reg 1 n" m4_wait $end
$var reg 32 o" m5_res_in [31:0] $end
$var reg 1 p" m5_wait $end
$var reg 1 q" mem_reset $end
$var reg 128 r" out_dmem [127:0] $end
$var reg 128 s" out_imem [127:0] $end
$var reg 32 t" page_table_root_addr [31:0] $end
$var reg 1 u" page_walking_dtlb $end
$var reg 1 v" page_walking_itlb $end
$var reg 32 w" pc [31:0] $end
$var reg 32 x" pc_in [31:0] $end
$var reg 1 y" pc_jump $end
$var reg 1 z" reset $end
$var reg 1 {" rgs_enable $end
$var reg 32 |" rm0 [31:0] $end
$var reg 32 }" rm1 [31:0] $end
$var reg 1 ~" rm4 $end
$var reg 5 !# rob_head [4:0] $end
$var reg 2 "# stld_size_in [1:0] $end
$var reg 1 ## t_enable $end
$var reg 1 $# t_is_load_in $end
$var reg 1 %# t_nop_in $end
$var reg 1 &# t_wait $end
$var reg 20 '# va_to_pa [19:0] $end
$var reg 1 (# was_reseted $end
$var integer 32 )# dwait_cycles [31:0] $end
$var integer 32 *# i [31:0] $end
$var integer 32 +# iwait_cycles [31:0] $end
$scope function calc_func $end
$var reg 7 ,# op [6:0] $end
$upscope $end
$scope function needs_write $end
$var reg 6 -# op [5:0] $end
$upscope $end
$scope function try_bypass $end
$var reg 5 .# adr [4:0] $end
$upscope $end
$scope module clk_gen $end
$var reg 1 i clk $end
$upscope $end
$scope module f_instr_ff $end
$var wire 1 i clk $end
$var wire 1 & enable $end
$var wire 32 /# in [31:0] $end
$var wire 1 z" reset $end
$var reg 32 0# out [31:0] $end
$upscope $end
$scope module ff_a_exception $end
$var wire 1 i clk $end
$var wire 1 ! enable $end
$var wire 1 z" reset $end
$var wire 5 1# in [4:0] $end
$var reg 5 2# out [4:0] $end
$upscope $end
$scope module ff_a_is_load $end
$var wire 1 i clk $end
$var wire 1 ! enable $end
$var wire 1 z" reset $end
$var wire 1 f in $end
$var reg 1 | out $end
$upscope $end
$scope module ff_a_is_store $end
$var wire 1 i clk $end
$var wire 1 ! enable $end
$var wire 1 z" reset $end
$var wire 1 e in $end
$var reg 1 { out $end
$upscope $end
$scope module ff_a_jump $end
$var wire 1 i clk $end
$var wire 1 ! enable $end
$var wire 1 '" in $end
$var wire 1 z" reset $end
$var reg 1 z out $end
$upscope $end
$scope module ff_a_nop $end
$var wire 1 i clk $end
$var wire 1 ! enable $end
$var wire 1 3# in $end
$var wire 1 z" reset $end
$var reg 1 y out $end
$upscope $end
$scope module ff_a_pc $end
$var wire 1 i clk $end
$var wire 1 ! enable $end
$var wire 1 z" reset $end
$var wire 32 4# in [31:0] $end
$var reg 32 5# out [31:0] $end
$upscope $end
$scope module ff_a_r_d_a $end
$var wire 1 i clk $end
$var wire 1 ! enable $end
$var wire 1 z" reset $end
$var wire 5 6# in [4:0] $end
$var reg 5 7# out [4:0] $end
$upscope $end
$scope module ff_a_r_d_a_val $end
$var wire 1 i clk $end
$var wire 1 ! enable $end
$var wire 1 z" reset $end
$var wire 32 8# in [31:0] $end
$var reg 32 9# out [31:0] $end
$upscope $end
$scope module ff_a_res $end
$var wire 1 i clk $end
$var wire 1 ! enable $end
$var wire 32 :# in [31:0] $end
$var wire 1 z" reset $end
$var reg 32 ;# out [31:0] $end
$upscope $end
$scope module ff_a_stld_size $end
$var wire 1 i clk $end
$var wire 1 " enable $end
$var wire 1 z" reset $end
$var wire 2 <# in [1:0] $end
$var reg 2 =# out [1:0] $end
$upscope $end
$scope module ff_a_swap_rm4 $end
$var wire 1 i clk $end
$var wire 1 ! enable $end
$var wire 1 *" in $end
$var wire 1 z" reset $end
$var reg 1 s out $end
$upscope $end
$scope module ff_a_tail $end
$var wire 1 i clk $end
$var wire 1 ! enable $end
$var wire 1 z" reset $end
$var wire 5 ># in [4:0] $end
$var reg 5 ?# out [4:0] $end
$upscope $end
$scope module ff_a_w $end
$var wire 1 i clk $end
$var wire 1 ! enable $end
$var wire 1 z" reset $end
$var wire 1 ] in $end
$var reg 1 q out $end
$upscope $end
$scope module ff_c_exception $end
$var wire 1 i clk $end
$var wire 1 ," enable $end
$var wire 5 @# in [4:0] $end
$var wire 1 z" reset $end
$var reg 5 A# out [4:0] $end
$upscope $end
$scope module ff_c_nop $end
$var wire 1 i clk $end
$var wire 1 ," enable $end
$var wire 1 B# in $end
$var wire 1 z" reset $end
$var reg 1 o out $end
$upscope $end
$scope module ff_c_pc $end
$var wire 1 i clk $end
$var wire 1 ," enable $end
$var wire 1 z" reset $end
$var wire 32 C# in [31:0] $end
$var reg 32 D# out [31:0] $end
$upscope $end
$scope module ff_c_r_d_a $end
$var wire 1 i clk $end
$var wire 1 ," enable $end
$var wire 1 z" reset $end
$var wire 5 E# in [4:0] $end
$var reg 5 F# out [4:0] $end
$upscope $end
$scope module ff_c_res $end
$var wire 1 i clk $end
$var wire 1 ," enable $end
$var wire 32 G# in [31:0] $end
$var wire 1 z" reset $end
$var reg 32 H# out [31:0] $end
$upscope $end
$scope module ff_c_swap_rm4 $end
$var wire 1 i clk $end
$var wire 1 ," enable $end
$var wire 1 s in $end
$var wire 1 z" reset $end
$var reg 1 k out $end
$upscope $end
$scope module ff_c_w $end
$var wire 1 i clk $end
$var wire 1 ," enable $end
$var wire 1 z" reset $end
$var wire 1 . in $end
$var reg 1 j out $end
$upscope $end
$scope module ff_d_exception $end
$var wire 1 i clk $end
$var wire 1 " enable $end
$var wire 1 z" reset $end
$var wire 5 I# in [4:0] $end
$var reg 5 J# out [4:0] $end
$upscope $end
$scope module ff_d_func $end
$var wire 1 i clk $end
$var wire 1 " enable $end
$var wire 7 K# in [6:0] $end
$var wire 1 z" reset $end
$var reg 7 L# out [6:0] $end
$upscope $end
$scope module ff_d_is_load $end
$var wire 1 i clk $end
$var wire 1 " enable $end
$var wire 1 6" in $end
$var wire 1 z" reset $end
$var reg 1 f out $end
$upscope $end
$scope module ff_d_is_store $end
$var wire 1 i clk $end
$var wire 1 " enable $end
$var wire 1 7" in $end
$var wire 1 z" reset $end
$var reg 1 e out $end
$upscope $end
$scope module ff_d_nop $end
$var wire 1 i clk $end
$var wire 1 " enable $end
$var wire 1 M# in $end
$var wire 1 z" reset $end
$var reg 1 d out $end
$upscope $end
$scope module ff_d_pc $end
$var wire 1 i clk $end
$var wire 1 " enable $end
$var wire 1 z" reset $end
$var wire 32 N# in [31:0] $end
$var reg 32 O# out [31:0] $end
$upscope $end
$scope module ff_d_r_a $end
$var wire 1 i clk $end
$var wire 1 " enable $end
$var wire 32 P# in [31:0] $end
$var wire 1 z" reset $end
$var reg 32 Q# out [31:0] $end
$upscope $end
$scope module ff_d_r_b $end
$var wire 1 i clk $end
$var wire 1 " enable $end
$var wire 32 R# in [31:0] $end
$var wire 1 z" reset $end
$var reg 32 S# out [31:0] $end
$upscope $end
$scope module ff_d_r_d_a $end
$var wire 1 i clk $end
$var wire 1 " enable $end
$var wire 5 T# in [4:0] $end
$var wire 1 z" reset $end
$var reg 5 U# out [4:0] $end
$upscope $end
$scope module ff_d_r_d_a_val $end
$var wire 1 i clk $end
$var wire 1 " enable $end
$var wire 32 V# in [31:0] $end
$var wire 1 z" reset $end
$var reg 32 W# out [31:0] $end
$upscope $end
$scope module ff_d_tail $end
$var wire 1 i clk $end
$var wire 1 " enable $end
$var wire 1 z" reset $end
$var wire 5 X# in [4:0] $end
$var reg 5 Y# out [4:0] $end
$upscope $end
$scope module ff_d_w $end
$var wire 1 i clk $end
$var wire 1 " enable $end
$var wire 1 =" in $end
$var wire 1 z" reset $end
$var reg 1 ] out $end
$upscope $end
$scope module ff_f_exception $end
$var wire 1 i clk $end
$var wire 1 & enable $end
$var wire 5 Z# in [4:0] $end
$var wire 1 z" reset $end
$var reg 5 [# out [4:0] $end
$upscope $end
$scope module ff_f_nop $end
$var wire 1 i clk $end
$var wire 1 & enable $end
$var wire 1 Q" in $end
$var wire 1 z" reset $end
$var reg 1 Z out $end
$upscope $end
$scope module ff_f_pc $end
$var wire 1 i clk $end
$var wire 1 $ enable $end
$var wire 32 \# in [31:0] $end
$var wire 1 z" reset $end
$var reg 32 ]# out [31:0] $end
$upscope $end
$scope module ff_f_tail $end
$var wire 1 i clk $end
$var wire 1 & enable $end
$var wire 1 z" reset $end
$var wire 5 ^# in [4:0] $end
$var reg 5 _# out [4:0] $end
$upscope $end
$scope module ff_f_tail_ctr $end
$var wire 1 i clk $end
$var wire 1 & enable $end
$var wire 5 `# in [4:0] $end
$var wire 1 z" reset $end
$var reg 5 a# out [4:0] $end
$upscope $end
$scope module ff_f_wait_for_cache $end
$var wire 1 i clk $end
$var wire 1 & enable $end
$var wire 1 U" in $end
$var wire 1 z" reset $end
$var reg 1 V out $end
$upscope $end
$scope module ff_m1_nop $end
$var wire 1 i clk $end
$var wire 1 ' enable $end
$var wire 1 g" in $end
$var wire 1 z" reset $end
$var reg 1 U out $end
$upscope $end
$scope module ff_m1_pc $end
$var wire 1 i clk $end
$var wire 1 ' enable $end
$var wire 32 b# in [31:0] $end
$var wire 1 z" reset $end
$var reg 32 c# out [31:0] $end
$upscope $end
$scope module ff_m1_r_b $end
$var wire 1 i clk $end
$var wire 1 ' enable $end
$var wire 32 d# in [31:0] $end
$var wire 1 z" reset $end
$var reg 32 e# out [31:0] $end
$upscope $end
$scope module ff_m1_r_d_a $end
$var wire 1 i clk $end
$var wire 1 ' enable $end
$var wire 5 f# in [4:0] $end
$var wire 1 z" reset $end
$var reg 5 g# out [4:0] $end
$upscope $end
$scope module ff_m1_tail $end
$var wire 1 i clk $end
$var wire 1 ' enable $end
$var wire 5 h# in [4:0] $end
$var wire 1 z" reset $end
$var reg 5 i# out [4:0] $end
$upscope $end
$scope module ff_m2_nop $end
$var wire 1 i clk $end
$var wire 1 ( enable $end
$var wire 1 U in $end
$var wire 1 z" reset $end
$var reg 1 O out $end
$upscope $end
$scope module ff_m2_pc $end
$var wire 1 i clk $end
$var wire 1 ( enable $end
$var wire 32 j# in [31:0] $end
$var wire 1 z" reset $end
$var reg 32 k# out [31:0] $end
$upscope $end
$scope module ff_m2_r_a $end
$var wire 1 i clk $end
$var wire 1 ( enable $end
$var wire 1 z" reset $end
$var wire 32 l# in [31:0] $end
$var reg 32 m# out [31:0] $end
$upscope $end
$scope module ff_m2_r_b $end
$var wire 1 i clk $end
$var wire 1 ( enable $end
$var wire 32 n# in [31:0] $end
$var wire 1 z" reset $end
$var reg 32 o# out [31:0] $end
$upscope $end
$scope module ff_m2_r_d_a $end
$var wire 1 i clk $end
$var wire 1 ( enable $end
$var wire 5 p# in [4:0] $end
$var wire 1 z" reset $end
$var reg 5 q# out [4:0] $end
$upscope $end
$scope module ff_m2_tail $end
$var wire 1 i clk $end
$var wire 1 ( enable $end
$var wire 5 r# in [4:0] $end
$var wire 1 z" reset $end
$var reg 5 s# out [4:0] $end
$upscope $end
$scope module ff_m3_nop $end
$var wire 1 i clk $end
$var wire 1 ) enable $end
$var wire 1 O in $end
$var wire 1 z" reset $end
$var reg 1 I out $end
$upscope $end
$scope module ff_m3_pc $end
$var wire 1 i clk $end
$var wire 1 ) enable $end
$var wire 32 t# in [31:0] $end
$var wire 1 z" reset $end
$var reg 32 u# out [31:0] $end
$upscope $end
$scope module ff_m3_r_a $end
$var wire 1 i clk $end
$var wire 1 ) enable $end
$var wire 32 v# in [31:0] $end
$var wire 1 z" reset $end
$var reg 32 w# out [31:0] $end
$upscope $end
$scope module ff_m3_r_b $end
$var wire 1 i clk $end
$var wire 1 ) enable $end
$var wire 32 x# in [31:0] $end
$var wire 1 z" reset $end
$var reg 32 y# out [31:0] $end
$upscope $end
$scope module ff_m3_r_d_a $end
$var wire 1 i clk $end
$var wire 1 ) enable $end
$var wire 5 z# in [4:0] $end
$var wire 1 z" reset $end
$var reg 5 {# out [4:0] $end
$upscope $end
$scope module ff_m3_tail $end
$var wire 1 i clk $end
$var wire 1 ) enable $end
$var wire 5 |# in [4:0] $end
$var wire 1 z" reset $end
$var reg 5 }# out [4:0] $end
$upscope $end
$scope module ff_m4_nop $end
$var wire 1 i clk $end
$var wire 1 * enable $end
$var wire 1 I in $end
$var wire 1 z" reset $end
$var reg 1 C out $end
$upscope $end
$scope module ff_m4_pc $end
$var wire 1 i clk $end
$var wire 1 * enable $end
$var wire 32 ~# in [31:0] $end
$var wire 1 z" reset $end
$var reg 32 !$ out [31:0] $end
$upscope $end
$scope module ff_m4_r_a $end
$var wire 1 i clk $end
$var wire 1 * enable $end
$var wire 32 "$ in [31:0] $end
$var wire 1 z" reset $end
$var reg 32 #$ out [31:0] $end
$upscope $end
$scope module ff_m4_r_b $end
$var wire 1 i clk $end
$var wire 1 * enable $end
$var wire 32 $$ in [31:0] $end
$var wire 1 z" reset $end
$var reg 32 %$ out [31:0] $end
$upscope $end
$scope module ff_m4_r_d_a $end
$var wire 1 i clk $end
$var wire 1 * enable $end
$var wire 5 &$ in [4:0] $end
$var wire 1 z" reset $end
$var reg 5 '$ out [4:0] $end
$upscope $end
$scope module ff_m4_tail $end
$var wire 1 i clk $end
$var wire 1 * enable $end
$var wire 5 ($ in [4:0] $end
$var wire 1 z" reset $end
$var reg 5 )$ out [4:0] $end
$upscope $end
$scope module ff_m5_nop $end
$var wire 1 i clk $end
$var wire 1 + enable $end
$var wire 1 C in $end
$var wire 1 z" reset $end
$var reg 1 = out $end
$upscope $end
$scope module ff_m5_pc $end
$var wire 1 i clk $end
$var wire 1 + enable $end
$var wire 32 *$ in [31:0] $end
$var wire 1 z" reset $end
$var reg 32 +$ out [31:0] $end
$upscope $end
$scope module ff_m5_r_d_a $end
$var wire 1 i clk $end
$var wire 1 + enable $end
$var wire 5 ,$ in [4:0] $end
$var wire 1 z" reset $end
$var reg 5 -$ out [4:0] $end
$upscope $end
$scope module ff_m5_r_res $end
$var wire 1 i clk $end
$var wire 1 + enable $end
$var wire 32 .$ in [31:0] $end
$var wire 1 z" reset $end
$var reg 32 /$ out [31:0] $end
$upscope $end
$scope module ff_m5_tail $end
$var wire 1 i clk $end
$var wire 1 + enable $end
$var wire 1 z" reset $end
$var wire 5 0$ in [4:0] $end
$var reg 5 1$ out [4:0] $end
$upscope $end
$scope module ff_mx_r_a $end
$var wire 1 i clk $end
$var wire 1 ' enable $end
$var wire 32 2$ in [31:0] $end
$var wire 1 z" reset $end
$var reg 32 3$ out [31:0] $end
$upscope $end
$scope module ff_stld_size $end
$var wire 1 i clk $end
$var wire 1 " enable $end
$var wire 2 4$ in [1:0] $end
$var wire 1 z" reset $end
$var reg 2 5$ out [1:0] $end
$upscope $end
$scope module ff_t_is_load $end
$var wire 1 i clk $end
$var wire 1 ## enable $end
$var wire 1 6$ in $end
$var wire 1 z" reset $end
$var reg 1 7 out $end
$upscope $end
$scope module ff_t_is_store $end
$var wire 1 i clk $end
$var wire 1 ## enable $end
$var wire 1 7$ in $end
$var wire 1 z" reset $end
$var reg 1 6 out $end
$upscope $end
$scope module ff_t_jump $end
$var wire 1 i clk $end
$var wire 1 - enable $end
$var wire 1 8$ in $end
$var wire 1 z" reset $end
$var reg 1 5 out $end
$upscope $end
$scope module ff_t_nop $end
$var wire 1 i clk $end
$var wire 1 ## enable $end
$var wire 1 9$ in $end
$var wire 1 z" reset $end
$var reg 1 4 out $end
$upscope $end
$scope module ff_t_pc $end
$var wire 1 i clk $end
$var wire 1 ## enable $end
$var wire 32 :$ in [31:0] $end
$var wire 1 z" reset $end
$var reg 32 ;$ out [31:0] $end
$upscope $end
$scope module ff_t_r_d_a $end
$var wire 1 i clk $end
$var wire 1 ## enable $end
$var wire 5 <$ in [4:0] $end
$var wire 1 z" reset $end
$var reg 5 =$ out [4:0] $end
$upscope $end
$scope module ff_t_r_d_a_val $end
$var wire 1 i clk $end
$var wire 1 ! enable $end
$var wire 32 >$ in [31:0] $end
$var wire 1 z" reset $end
$var reg 32 ?$ out [31:0] $end
$upscope $end
$scope module ff_t_res $end
$var wire 1 i clk $end
$var wire 1 ## enable $end
$var wire 32 @$ in [31:0] $end
$var wire 1 z" reset $end
$var reg 32 A$ out [31:0] $end
$upscope $end
$scope module ff_t_stld_size $end
$var wire 1 i clk $end
$var wire 1 " enable $end
$var wire 2 B$ in [1:0] $end
$var wire 1 z" reset $end
$var reg 2 C$ out [1:0] $end
$upscope $end
$scope module ff_t_w $end
$var wire 1 i clk $end
$var wire 1 ## enable $end
$var wire 1 D$ in $end
$var wire 1 z" reset $end
$var reg 1 . out $end
$upscope $end
$scope begin $unm_blk_131 $end
$var integer 32 E$ j [31:0] $end
$upscope $end
$scope task new_inst_found $end
$upscope $end
$scope task print_memory $end
$upscope $end
$scope task print_pipeline $end
$upscope $end
$scope task print_rob $end
$upscope $end
$scope task write_to_rob $end
$var reg 11 F$ in_exc [10:0] $end
$var reg 1 G$ in_jump $end
$var reg 1 H$ in_load $end
$var reg 32 I$ in_pc [31:0] $end
$var reg 5 J$ in_reg [4:0] $end
$var reg 1 K$ in_store $end
$var reg 5 L$ in_tail [4:0] $end
$var reg 32 M$ in_val [31:0] $end
$var reg 1 N$ in_valid $end
$var reg 1 O$ in_write $end
$upscope $end
$upscope $end
$enddefinitions $end
#0
$dumpvars
xO$
xN$
bx M$
bx L$
xK$
bx J$
bx I$
xH$
xG$
bx F$
bx E$
xD$
bx C$
bx B$
bx A$
bx @$
bx ?$
bx >$
bx =$
bx <$
bx ;$
bx :$
x9$
x8$
x7$
x6$
bx 5$
bx 4$
bx 3$
bx 2$
bx 1$
bx 0$
bx /$
bx .$
bx -$
bx ,$
bx +$
bx *$
bx )$
bx ($
bx '$
bx &$
bx %$
bx $$
bx #$
bx "$
bx !$
bx ~#
bx }#
bx |#
bx {#
bx z#
bx y#
bx x#
bx w#
bx v#
bx u#
bx t#
bx s#
bx r#
bx q#
bx p#
bx o#
bx n#
bx m#
bx l#
bx k#
bx j#
bx i#
bx h#
bx g#
bx f#
bx e#
bx d#
bx c#
bx b#
bx a#
b0 `#
bx _#
bx ^#
bx ]#
b1000000000000 \#
bx [#
b0 Z#
bx Y#
bx X#
bx W#
bx V#
bx U#
bx T#
bx S#
bx R#
bx Q#
bx P#
bx O#
bx N#
1M#
bx L#
bx K#
bx J#
bx I#
bx H#
bx G#
bx F#
bx E#
bx D#
bx C#
xB#
bx A#
b0 @#
bx ?#
bx >#
bx =#
bx <#
bx ;#
bx :#
bx 9#
bx 8#
bx 7#
bx 6#
bx 5#
bx 4#
13#
bx 2#
bx 1#
bx 0#
bx /#
bx .#
bx -#
bx ,#
bx +#
b10000000 *#
bx )#
1(#
b1000000000000000 '#
0&#
0%#
0$#
1##
bx "#
b0 !#
1~"
bx }"
bx |"
0{"
0z"
0y"
b1000000000000 x"
b1000000000000 w"
xv"
xu"
bx t"
bx s"
bx r"
xq"
0p"
bx o"
0n"
0m"
0l"
0k"
bx j"
bx i"
bx h"
1g"
xf"
bx e"
bx d"
bx c"
xb"
xa"
x`"
bx _"
bx ^"
b0 ]"
x\"
0["
bx Z"
xY"
0X"
bx W"
xV"
0U"
0T"
b0 S"
0R"
1Q"
bx P"
b0 O"
xN"
bx M"
bx L"
bx K"
xJ"
xI"
bx H"
bx G"
xF"
bx E"
xD"
bx C"
bx B"
0A"
0@"
x?"
0>"
x="
bx <"
bx ;"
bx :"
bx 9"
18"
x7"
x6"
bx 5"
b0 4"
bx 3"
bx 2"
11"
00"
bx /"
0."
b0 -"
1,"
0+"
0*"
bx )"
1("
x'"
b0 &"
0%"
bx $"
0#"
bx ""
bx !"
bx ~
bx }
x|
x{
xz
xy
bx x
bx w
bx v
bx u
bx t
xs
bx r
xq
bx p
xo
bx n
bx m
bx l
xk
xj
0i
bx h
bx g
xf
xe
xd
bx c
bx b
bx a
bx `
bx _
bx ^
x]
bx \
bx [
xZ
bx Y
bx X
bx W
xV
xU
bx T
bx S
bx R
bx Q
bx P
xO
bx N
bx M
bx L
bx K
bx J
xI
bx H
bx G
bx F
bx E
bx D
xC
bx B
bx A
bx @
bx ?
bx >
x=
bx <
bx ;
bx :
bx 9
bx 8
x7
x6
x5
x4
bx 3
bx 2
bx 1
bx 0
bx /
x.
z-
0,
1+
1*
1)
1(
1'
1&
1%
1$
b0 #
1"
1!
$end
#1000
09$
0B#
b0 \
b0 I#
b0 [#
b0 [
b0 0#
b0 Y
b0 N#
b0 ]#
0Z
b0 X
b0 X#
b0 _#
b0 W
b0 ^#
b0 a#
0V
b0 c
b0 4#
b0 O#
b0 `
b0 6#
b0 U#
b0 f#
b0 _
b0 8#
b0 W#
b0 8
b0 <#
b0 5$
0]
0f
0e
b0 g
b0 L#
b0 b
b0 Q#
b0 a
b0 S#
b0 ^
b0 >#
b0 Y#
b0 h#
b0 h
b0 1#
b0 J#
0d
b0 x
b0 5#
b0 w
b0 7#
b0 v
b0 9#
b0 t
b0 =#
b0 B$
0q
0|
0{
b0 u
b0 ;#
0z
b0 r
b0 ?#
0y
0s
b0 }
b0 2#
b0 Q
b0 g#
b0 p#
b0 S
b0 l#
b0 3$
b0 R
b0 e#
b0 n#
b0 P
b0 i#
b0 r#
0U
b0 K
b0 q#
b0 z#
b0 M
b0 m#
b0 v#
b0 L
b0 o#
b0 x#
b0 J
b0 s#
b0 |#
0O
b0 E
b0 {#
b0 &$
b0 G
b0 w#
b0 "$
b0 F
b0 y#
b0 $$
b0 D
b0 }#
b0 ($
0I
b0 ?
b0 '$
b0 ,$
b0 A
b0 #$
b0 @
b0 %$
b0 >
b0 )$
0C
b0 ;
b0 -$
b0 :
b0 /$
b0 9
b0 0$
b0 1$
0=
b0 3
b0 C#
b0 ;$
b0 2
b0 E#
b0 =$
b0 1
b0 ?$
0.
b0 0
b0 A$
07
06
05
b0 /
b0 C$
04
b0 n
b0 D#
b0 m
b0 F#
0j
b0 l
b0 H#
0o
0k
b0 p
b0 A#
0Q"
b0 }"
b0 |"
0\"
0F"
0D"
0?"
b0 M"
0u"
b0 K"
1N"
0I"
b0 H"
b0 G"
b0 e"
0v"
b0 c"
1f"
0a"
b101000000000000 t"
b111111111111111111111111111111111 _"
b111111111111111111111111111111111 ^"
b10010011111111 E$
b11111111111111111111111111111111 +#
b11 *#
1,
1z"
#1010
1Q"
#1200
b100000 *#
#2000
0,
0z"
#5000
19$
0(#
bx l
bx H#
x6
x7
bx 0
bx A$
x.
bx 1
bx ?$
bx 2
bx E#
bx =$
bx 3
bx C#
bx ;$
bx :
bx /$
1U
bx R
bx e#
bx n#
bx S
bx l#
bx 3$
1y
xz
bx u
bx ;#
1d
bx a
bx S#
bx b
bx Q#
bx g
bx L#
xe
xf
x]
bx 8
bx <#
bx 5$
bx _
bx 8#
bx W#
bx `
bx 6#
bx U#
bx f#
1Z
b1000000000000 Y
b1000000000000 N#
b1000000000000 ]#
bx [
bx 0#
0Q"
1i
#5001
b1001 *#
#5020
1b"
b1000000000000 d"
#5100
0'"
0("
#5200
xy"
