src/test.vcd
$date
	Tue Jan 14 12:34:32 2025
$end
$version
	Icarus Verilog
$end
$timescale
	1ps
$end
$scope module processor_tb $end
$var wire 1 ! a_enable $end
$var wire 1 " d_enable $end
$var wire 32 # data [31:0] $end
$var wire 1 $ enable_inc $end
$var wire 1 % enable_pc $end
$var wire 1 & f_enable $end
$var wire 1 ' reset_pc $end
$var wire 2 ( stld_size [1:0] $end
$var wire 32 ) f_pc [31:0] $end
$var wire 1 * f_nop $end
$var wire 32 + f_instr [31:0] $end
$var wire 5 , f_exception [4:0] $end
$var wire 1 - d_w $end
$var wire 32 . d_r_d_a_val [31:0] $end
$var wire 5 / d_r_d_a [4:0] $end
$var wire 32 0 d_r_b [31:0] $end
$var wire 32 1 d_r_a [31:0] $end
$var wire 32 2 d_pc [31:0] $end
$var wire 1 3 d_nop $end
$var wire 1 4 d_is_store $end
$var wire 1 5 d_is_load $end
$var wire 7 6 d_func [6:0] $end
$var wire 5 7 d_exception [4:0] $end
$var wire 1 8 clk $end
$var wire 1 9 c_w $end
$var wire 1 : c_swap_rm4 $end
$var wire 32 ; c_res [31:0] $end
$var wire 5 < c_r_d_a [4:0] $end
$var wire 32 = c_pc [31:0] $end
$var wire 1 > c_nop $end
$var wire 5 ? c_exception [4:0] $end
$var wire 1 @ a_w $end
$var wire 1 A a_swap_rm4 $end
$var wire 2 B a_stld_size [1:0] $end
$var wire 32 C a_res [31:0] $end
$var wire 32 D a_r_d_a_val [31:0] $end
$var wire 5 E a_r_d_a [4:0] $end
$var wire 32 F a_pc [31:0] $end
$var wire 1 G a_nop $end
$var wire 1 H a_jump $end
$var wire 1 I a_is_store $end
$var wire 1 J a_is_load $end
$var wire 5 K a_exception [4:0] $end
$var reg 128 L __dmem_in_d_buffer [127:0] $end
$var reg 32 M __dmem_r_a_buffer [31:0] $end
$var reg 32 N __dmem_w_a_buffer [31:0] $end
$var reg 1 O __dwrite_or_read $end
$var reg 32 P __imem_a_buffer [31:0] $end
$var reg 1 Q __iwrite_or_read $end
$var reg 5 R a_exception_in [4:0] $end
$var reg 1 S a_jump_in $end
$var reg 1 T a_nop_in $end
$var reg 32 U a_res_in [31:0] $end
$var reg 1 V a_swap_rm4_in $end
$var reg 1 W a_wait $end
$var reg 1 X c_enable $end
$var reg 5 Y c_exception_in [4:0] $end
$var reg 1 Z c_nop_in $end
$var reg 32 [ c_res_in [31:0] $end
$var reg 1 \ c_wait $end
$var reg 32 ] d_addr [31:0] $end
$var reg 5 ^ d_exception_in [4:0] $end
$var reg 7 _ d_func_in [6:0] $end
$var reg 1 ` d_is_load_in $end
$var reg 1 a d_is_store_in $end
$var reg 1 b d_nop_in $end
$var reg 32 c d_r_a_in [31:0] $end
$var reg 32 d d_r_b_in [31:0] $end
$var reg 5 e d_r_d_a_in [4:0] $end
$var reg 32 f d_r_d_a_val_in [31:0] $end
$var reg 1 g d_w_in $end
$var reg 1 h d_wait $end
$var reg 1 i dcache_read $end
$var reg 1 j dhit $end
$var reg 1 k dmem_finished $end
$var reg 128 l dmem_in_data [127:0] $end
$var reg 32 m dmem_r_address [31:0] $end
$var reg 1 n dmem_read $end
$var reg 32 o dmem_w_address [31:0] $end
$var reg 1 p dmem_write $end
$var reg 32 q drm0 [31:0] $end
$var reg 32 r drm1 [31:0] $end
$var reg 1 s dtlb_miss $end
$var reg 1 t dtlb_read $end
$var reg 6 u dtlb_tail [5:0] $end
$var reg 32 v dtlb_va [31:0] $end
$var reg 20 w dtlb_valids [19:0] $end
$var reg 1 x dtlb_wait $end
$var reg 5 y f_exception_in [4:0] $end
$var reg 32 z f_instr_input [31:0] $end
$var reg 1 { f_nop_in $end
$var reg 1 | f_wait $end
$var reg 1 } hit $end
$var reg 32 ~ iaddr [31:0] $end
$var reg 1 !" icache_read $end
$var reg 1 "" icache_write $end
$var reg 32 #" imem_address [31:0] $end
$var reg 1 $" imem_finished $end
$var reg 1 %" imem_read $end
$var reg 32 &" in_data [31:0] $end
$var reg 33 '" irm0 [32:0] $end
$var reg 33 (" irm1 [32:0] $end
$var reg 1 )" itlb_hit $end
$var reg 1 *" itlb_miss $end
$var reg 1 +" itlb_read $end
$var reg 6 ," itlb_tail [5:0] $end
$var reg 32 -" itlb_va [31:0] $end
$var reg 20 ." itlb_valids [19:0] $end
$var reg 1 /" itlb_wait $end
$var reg 1 0" mem_reset $end
$var reg 128 1" out_dmem [127:0] $end
$var reg 128 2" out_imem [127:0] $end
$var reg 32 3" page_table_root_addr [31:0] $end
$var reg 1 4" page_walking_dtlb $end
$var reg 1 5" page_walking_itlb $end
$var reg 32 6" pc [31:0] $end
$var reg 32 7" pc_in [31:0] $end
$var reg 1 8" pc_jump $end
$var reg 1 9" reset $end
$var reg 1 :" rgs_enable $end
$var reg 32 ;" rm0 [31:0] $end
$var reg 32 <" rm1 [31:0] $end
$var reg 1 =" rm4 $end
$var reg 2 >" stld_size_in [1:0] $end
$var reg 20 ?" va_to_pa [19:0] $end
$var reg 1 @" was_reseted $end
$var integer 32 A" cycle_num [31:0] $end
$var integer 32 B" dread_cycles [31:0] $end
$var integer 32 C" dwrite_cycles [31:0] $end
$var integer 32 D" i [31:0] $end
$var integer 32 E" iwait_cycles [31:0] $end
$scope function calc_func $end
$var reg 7 F" op [6:0] $end
$upscope $end
$scope function needs_write $end
$var reg 6 G" op [5:0] $end
$upscope $end
$scope function try_bypass $end
$var reg 5 H" adr [4:0] $end
$upscope $end
$scope module clk_gen $end
$var parameter 32 I" PERIOD $end
$var reg 1 8 clk $end
$upscope $end
$scope module f_instr_ff $end
$var wire 1 8 clk $end
$var wire 1 & enable $end
$var wire 32 J" in [31:0] $end
$var wire 1 9" reset $end
$var parameter 32 K" BITS $end
$var reg 32 L" out [31:0] $end
$upscope $end
$scope module ff_a_exception $end
$var wire 1 8 clk $end
$var wire 1 ! enable $end
$var wire 1 9" reset $end
$var wire 5 M" in [4:0] $end
$var parameter 32 N" BITS $end
$var reg 5 O" out [4:0] $end
$upscope $end
$scope module ff_a_is_load $end
$var wire 1 8 clk $end
$var wire 1 ! enable $end
$var wire 1 9" reset $end
$var wire 1 5 in $end
$var parameter 32 P" BITS $end
$var reg 1 J out $end
$upscope $end
$scope module ff_a_is_store $end
$var wire 1 8 clk $end
$var wire 1 ! enable $end
$var wire 1 9" reset $end
$var wire 1 4 in $end
$var parameter 32 Q" BITS $end
$var reg 1 I out $end
$upscope $end
$scope module ff_a_jump $end
$var wire 1 8 clk $end
$var wire 1 ! enable $end
$var wire 1 S in $end
$var wire 1 9" reset $end
$var parameter 32 R" BITS $end
$var reg 1 H out $end
$upscope $end
$scope module ff_a_nop $end
$var wire 1 8 clk $end
$var wire 1 ! enable $end
$var wire 1 S" in $end
$var wire 1 9" reset $end
$var parameter 32 T" BITS $end
$var reg 1 G out $end
$upscope $end
$scope module ff_a_pc $end
$var wire 1 8 clk $end
$var wire 1 ! enable $end
$var wire 1 9" reset $end
$var wire 32 U" in [31:0] $end
$var parameter 32 V" BITS $end
$var reg 32 W" out [31:0] $end
$upscope $end
$scope module ff_a_r_d_a $end
$var wire 1 8 clk $end
$var wire 1 ! enable $end
$var wire 1 9" reset $end
$var wire 5 X" in [4:0] $end
$var parameter 32 Y" BITS $end
$var reg 5 Z" out [4:0] $end
$upscope $end
$scope module ff_a_r_d_a_val $end
$var wire 1 8 clk $end
$var wire 1 ! enable $end
$var wire 1 9" reset $end
$var wire 32 [" in [31:0] $end
$var parameter 32 \" BITS $end
$var reg 32 ]" out [31:0] $end
$upscope $end
$scope module ff_a_res $end
$var wire 1 8 clk $end
$var wire 1 ! enable $end
$var wire 32 ^" in [31:0] $end
$var wire 1 9" reset $end
$var parameter 32 _" BITS $end
$var reg 32 `" out [31:0] $end
$upscope $end
$scope module ff_a_stld_size $end
$var wire 1 8 clk $end
$var wire 1 " enable $end
$var wire 1 9" reset $end
$var wire 2 a" in [1:0] $end
$var parameter 32 b" BITS $end
$var reg 2 c" out [1:0] $end
$upscope $end
$scope module ff_a_swap_rm4 $end
$var wire 1 8 clk $end
$var wire 1 ! enable $end
$var wire 1 V in $end
$var wire 1 9" reset $end
$var parameter 32 d" BITS $end
$var reg 1 A out $end
$upscope $end
$scope module ff_a_w $end
$var wire 1 8 clk $end
$var wire 1 ! enable $end
$var wire 1 9" reset $end
$var wire 1 - in $end
$var parameter 32 e" BITS $end
$var reg 1 @ out $end
$upscope $end
$scope module ff_c_exception $end
$var wire 1 8 clk $end
$var wire 1 X enable $end
$var wire 5 f" in [4:0] $end
$var wire 1 9" reset $end
$var parameter 32 g" BITS $end
$var reg 5 h" out [4:0] $end
$upscope $end
$scope module ff_c_nop $end
$var wire 1 8 clk $end
$var wire 1 X enable $end
$var wire 1 i" in $end
$var wire 1 9" reset $end
$var parameter 32 j" BITS $end
$var reg 1 > out $end
$upscope $end
$scope module ff_c_pc $end
$var wire 1 8 clk $end
$var wire 1 X enable $end
$var wire 32 k" in [31:0] $end
$var wire 1 9" reset $end
$var parameter 32 l" BITS $end
$var reg 32 m" out [31:0] $end
$upscope $end
$scope module ff_c_r_d_a $end
$var wire 1 8 clk $end
$var wire 1 X enable $end
$var wire 5 n" in [4:0] $end
$var wire 1 9" reset $end
$var parameter 32 o" BITS $end
$var reg 5 p" out [4:0] $end
$upscope $end
$scope module ff_c_res $end
$var wire 1 8 clk $end
$var wire 1 X enable $end
$var wire 32 q" in [31:0] $end
$var wire 1 9" reset $end
$var parameter 32 r" BITS $end
$var reg 32 s" out [31:0] $end
$upscope $end
$scope module ff_c_swap_rm4 $end
$var wire 1 8 clk $end
$var wire 1 X enable $end
$var wire 1 A in $end
$var wire 1 9" reset $end
$var parameter 32 t" BITS $end
$var reg 1 : out $end
$upscope $end
$scope module ff_c_w $end
$var wire 1 8 clk $end
$var wire 1 X enable $end
$var wire 1 @ in $end
$var wire 1 9" reset $end
$var parameter 32 u" BITS $end
$var reg 1 9 out $end
$upscope $end
$scope module ff_d_exception $end
$var wire 1 8 clk $end
$var wire 1 " enable $end
$var wire 1 9" reset $end
$var wire 5 v" in [4:0] $end
$var parameter 32 w" BITS $end
$var reg 5 x" out [4:0] $end
$upscope $end
$scope module ff_d_func $end
$var wire 1 8 clk $end
$var wire 1 " enable $end
$var wire 7 y" in [6:0] $end
$var wire 1 9" reset $end
$var parameter 32 z" BITS $end
$var reg 7 {" out [6:0] $end
$upscope $end
$scope module ff_d_is_load $end
$var wire 1 8 clk $end
$var wire 1 " enable $end
$var wire 1 ` in $end
$var wire 1 9" reset $end
$var parameter 32 |" BITS $end
$var reg 1 5 out $end
$upscope $end
$scope module ff_d_is_store $end
$var wire 1 8 clk $end
$var wire 1 " enable $end
$var wire 1 a in $end
$var wire 1 9" reset $end
$var parameter 32 }" BITS $end
$var reg 1 4 out $end
$upscope $end
$scope module ff_d_nop $end
$var wire 1 8 clk $end
$var wire 1 " enable $end
$var wire 1 ~" in $end
$var wire 1 9" reset $end
$var parameter 32 !# BITS $end
$var reg 1 3 out $end
$upscope $end
$scope module ff_d_pc $end
$var wire 1 8 clk $end
$var wire 1 " enable $end
$var wire 1 9" reset $end
$var wire 32 "# in [31:0] $end
$var parameter 32 ## BITS $end
$var reg 32 $# out [31:0] $end
$upscope $end
$scope module ff_d_r_a $end
$var wire 1 8 clk $end
$var wire 1 " enable $end
$var wire 32 %# in [31:0] $end
$var wire 1 9" reset $end
$var parameter 32 &# BITS $end
$var reg 32 '# out [31:0] $end
$upscope $end
$scope module ff_d_r_b $end
$var wire 1 8 clk $end
$var wire 1 " enable $end
$var wire 32 (# in [31:0] $end
$var wire 1 9" reset $end
$var parameter 32 )# BITS $end
$var reg 32 *# out [31:0] $end
$upscope $end
$scope module ff_d_r_d_a $end
$var wire 1 8 clk $end
$var wire 1 " enable $end
$var wire 5 +# in [4:0] $end
$var wire 1 9" reset $end
$var parameter 32 ,# BITS $end
$var reg 5 -# out [4:0] $end
$upscope $end
$scope module ff_d_r_d_a_val $end
$var wire 1 8 clk $end
$var wire 1 " enable $end
$var wire 32 .# in [31:0] $end
$var wire 1 9" reset $end
$var parameter 32 /# BITS $end
$var reg 32 0# out [31:0] $end
$upscope $end
$scope module ff_d_w $end
$var wire 1 8 clk $end
$var wire 1 " enable $end
$var wire 1 g in $end
$var wire 1 9" reset $end
$var parameter 32 1# BITS $end
$var reg 1 - out $end
$upscope $end
$scope module ff_f_exception $end
$var wire 1 8 clk $end
$var wire 1 & enable $end
$var wire 5 2# in [4:0] $end
$var wire 1 9" reset $end
$var parameter 32 3# BITS $end
$var reg 5 4# out [4:0] $end
$upscope $end
$scope module ff_f_nop $end
$var wire 1 8 clk $end
$var wire 1 & enable $end
$var wire 1 { in $end
$var wire 1 9" reset $end
$var parameter 32 5# BITS $end
$var reg 1 * out $end
$upscope $end
$scope module ff_f_pc $end
$var wire 1 8 clk $end
$var wire 1 $ enable $end
$var wire 32 6# in [31:0] $end
$var wire 1 9" reset $end
$var parameter 32 7# BITS $end
$var reg 32 8# out [31:0] $end
$upscope $end
$scope module ff_stld_size $end
$var wire 1 8 clk $end
$var wire 1 " enable $end
$var wire 2 9# in [1:0] $end
$var wire 1 9" reset $end
$var parameter 32 :# BITS $end
$var reg 2 ;# out [1:0] $end
$upscope $end
$scope begin $unm_blk_103 $end
$var integer 32 <# j [31:0] $end
$upscope $end
$scope task print_pipeline $end
$upscope $end
$scope task printmem $end
$var integer 32 =# j [31:0] $end
$upscope $end
$upscope $end
$enddefinitions $end
$comment Show the parameter values. $end
$dumpall
b10 :#
b100000 7#
b1 5#
b101 3#
b1 1#
b100000 /#
b101 ,#
b100000 )#
b100000 &#
b100000 ##
b1 !#
b1 }"
b1 |"
b111 z"
b101 w"
b1 u"
b1 t"
b100000 r"
b101 o"
b100000 l"
b1 j"
b101 g"
b1 e"
b1 d"
b10 b"
b100000 _"
b100000 \"
b101 Y"
b100000 V"
b1 T"
b1 R"
b1 Q"
b1 P"
b101 N"
b100000 K"
b1010 I"
$end
#0
$dumpvars
bx =#
bx <#
bx ;#
bx 9#
bx 8#
b1000000000000 6#
bx 4#
b0 2#
bx 0#
bx .#
bx -#
bx +#
bx *#
bx (#
bx '#
bx %#
bx $#
bx "#
x~"
bx {"
bx y"
bx x"
bx v"
bx s"
bx q"
bx p"
bx n"
bx m"
bx k"
xi"
bx h"
b0 f"
bx c"
bx a"
bx `"
bx ^"
bx ]"
bx ["
bx Z"
bx X"
bx W"
bx U"
xS"
bx O"
bx M"
bx L"
bx J"
bx H"
bx G"
bx F"
bx E"
bx D"
bx C"
bx B"
b0 A"
1@"
b1000000000000000 ?"
bx >"
1="
bx <"
bx ;"
0:"
09"
08"
b1000000000000 7"
b1000000000000 6"
x5"
x4"
bx 3"
bx 2"
bx 1"
x0"
x/"
bx ."
bx -"
bx ,"
x+"
x*"
x)"
bx ("
bx '"
b0 &"
x%"
0$"
bx #"
x""
x!"
bx ~
x}
0|
1{
bx z
b0 y
xx
bx w
bx v
bx u
xt
xs
bx r
bx q
xp
bx o
xn
bx m
bx l
0k
0j
xi
0h
xg
bx f
bx e
bx d
bx c
0b
xa
x`
bx _
b0 ^
bx ]
0\
bx [
0Z
b0 Y
1X
0W
0V
bx U
0T
xS
b0 R
0Q
bx P
0O
bx N
bx M
bx L
bx K
xJ
xI
xH
xG
bx F
bx E
bx D
bx C
bx B
xA
x@
bx ?
x>
bx =
bx <
bx ;
x:
x9
08
bx 7
bx 6
x5
x4
x3
bx 2
bx 1
bx 0
bx /
bx .
x-
bx ,
bx +
x*
bx )
bx (
0'
1&
1%
1$
b0 #
1"
1!
$end
#1000
0~"
0S"
0i"
b0 ,
b0 v"
b0 4#
b0 +
b0 L"
b0 )
b0 "#
b0 8#
0*
b0 2
b0 U"
b0 $#
b0 /
b0 X"
b0 -#
b0 .
b0 ["
b0 0#
b0 (
b0 a"
b0 ;#
0-
05
04
b0 6
b0 {"
b0 1
b0 '#
b0 0
b0 *#
b0 7
b0 M"
b0 x"
03
b0 F
b0 W"
b0 k"
b0 E
b0 Z"
b0 n"
b0 D
b0 ]"
b0 B
b0 c"
0@
0J
0I
b0 C
b0 `"
0H
0G
0A
b0 K
b0 O"
b0 =
b0 m"
b0 <
b0 p"
09
b0 ;
b0 s"
0>
0:
b0 ?
b0 h"
0{
b0 <"
b0 ;"
0%"
0p
0n
0i
b0 w
04"
b0 u
1x
0s
b0 r
b0 q
b0 ."
05"
b0 ,"
1/"
0*"
b101000000000000 3"
b111111111111111111111111111111111 ("
b111111111111111111111111111111111 '"
b100001110001 <#
b11111111111111111111111111111111 E"
0!"
b11 D"
1'
19"
#1010
1{
#1100
0S
#1200
b100000 D"
#1410
0{
#2000
0'
09"
#5000
0@"
bx ;
bx s"
bx C
bx `"
bx 0
bx *#
bx 1
bx '#
bx 6
bx {"
x4
x5
x-
bx (
bx a"
bx ;#
bx .
bx ["
bx 0#
bx /
bx X"
bx -#
b1000000000000 )
b1000000000000 "#
b1000000000000 8#
bx +
bx L"
b1 A"
18
#5020
1+"
b1000000000000 -"
#5200
b0 U
b0 ^"
#5320
1!"
b1000000000000 ~
0+"
#5510
b0 _
b0 y"
#5520
b100000000 P
b0 E"
1%"
b100000000 #"
0$
1{
1|
#5530
b0xxxxxxxxxxxxxxxxxxxx d
b0xxxxxxxxxxxxxxxxxxxx (#
1g
0!"
#10000
08
#15000
1~"
1*
b1000000000000 2
b1000000000000 U"
b1000000000000 $#
1-
b0 6
b0 {"
b0xxxxxxxxxxxxxxxxxxxx 0
b0xxxxxxxxxxxxxxxxxxxx *#
bx E
bx Z"
bx n"
bx D
bx ]"
bx B
bx c"
x@
xJ
xI
b0 C
b0 `"
0{
b10 A"
b1 E"
18
#15010
1{
#15101
b0 [
b0 q"
#15200
bx U
bx ^"
#20000
08
#25000
1S"
b0 ;
b0 s"
x9
bx <
bx p"
bx C
bx `"
1@
b1000000000000 F
b1000000000000 W"
b1000000000000 k"
13
0{
b11 A"
b10 E"
18
#25010
b1100110000000000000000000000000 2"
1{
#25030
1$"
b11111111111111111111111111111111 E"
#25101
bx [
bx q"
#30000
08
#35000
1i"
1G
b1000000000000 =
b1000000000000 m"
19
bx ;
bx s"
0{
b100 A"
18
#35010
1""
#35020
b1100110000000000000000000000000 z
b1100110000000000000000000000000 J"
#35030
1$
0""
0$"
0|
0%"
#35410
b100000 D"
#40000
08
#45000
0~"
b1000000000100 6"
b1000000000100 6#
1>
0*
b1100110000000000000000000000000 +
b1100110000000000000000000000000 L"
b101 A"
18
#45020
1+"
b1000000000100 -"
#45320
b0 z
b0 J"
1!"
b1000000000100 ~
0+"
#45330
0!"
#45510
b100001 _
b100001 y"
b110011 F"
#45520
0a
0`
b0 e
b0 +#
#45530
b0 d
b0 (#
0g
b110011 G"
b0 H"
#50000
08
#55000
0S"
b0 +
b0 L"
b1000000000100 )
b1000000000100 "#
b1000000000100 8#
b0 /
b0 X"
b0 -#
0-
05
04
b100001 6
b100001 {"
b0 0
b0 *#
03
b1000000001000 6"
b1000000001000 6#
b110 A"
18
#55020
1+"
b1000000001000 -"
#55200
b0 U
b0 ^"
1S
1V
#55320
1!"
b1000000001000 ~
0+"
#55330
0!"
#55510
b0 _
b0 y"
b0 F"
#55530
bx d
bx (#
1g
0$
x&
1~"
b0 G"
1h
1b
#60000
08
#65000
0i"
1S"
1A
0G
1H
b0 C
b0 `"
0I
0J
0@
b0 E
b0 Z"
b0 n"
13
bx 0
bx *#
b0 6
b0 {"
1-
b1000000000100 2
b1000000000100 U"
b1000000000100 $#
b111 A"
18
#65020
1+"
#65100
0S
0V
#65101
b0 [
b0 q"
#65320
1!"
0+"
#65330
0!"
#65400
1{
1T
b0 7"
18"
#65401
0="
#65460
1$
1&
0~"
0b
0h
#65530
b0 d
b0 (#
b0 c
b0 %#
#70000
08
#75000
1~"
1i"
b1000000001000 )
b1000000001000 "#
b1000000001000 8#
1*
b0 1
b0 '#
b0 0
b0 *#
03
b1000000000100 F
b1000000000100 W"
b1000000000100 k"
1@
0H
1G
0A
b0 <
b0 p"
09
b0 ;
b0 s"
0>
1:
08"
b0 6"
b0 6#
0{
b1000 A"
18
#75020
1+"
b0 -"
#75100
0S"
0T
#75320
0)"
0+"
#75330
b10100 D"
#75340
b1 y
b1 2#
b0 ("
b0 '"
#80000
08
#85000
0i"
1S"
0~"
b100 6"
b100 6#
0:
1>
19
b1000000000100 =
b1000000000100 m"
0G
13
b1000000001000 2
b1000000001000 U"
b1000000001000 $#
0*
b0 )
b0 "#
b0 8#
b1 ,
b1 v"
b1 4#
b0 y
b0 2#
b1001 A"
18
#85020
1+"
b100 -"
#85320
0+"
#85330
b10100 D"
#85560
1{
#90000
08
#95000
1~"
0S"
1i"
b0 ,
b0 v"
b0 4#
b100 )
b100 "#
b100 8#
1*
b0 2
b0 U"
b0 $#
b1 7
b1 M"
b1 x"
03
b1000000001000 F
b1000000001000 W"
b1000000001000 k"
1G
0>
b1000 6"
b1000 6#
0{
b1010 A"
18
#95020
1+"
b1000 -"
#95100
1b
1{
#95320
0+"
#95410
b100000 D"
#100000
08
#105000
0i"
1S"
b1100 6"
b1100 6#
1>
b1000000001000 =
b1000000001000 m"
b1 K
b1 O"
0G
b0 F
b0 W"
b0 k"
13
b0 7
b0 M"
b0 x"
b100 2
b100 U"
b100 $#
b1000 )
b1000 "#
b1000 8#
0{
b1011 A"
18
#105001
b1 Y
b1 f"
#105010
1T
1{
#105020
1+"
b1100 -"
#105100
0T
#105320
0+"
#110000
08
#115000
1i"
b1100 )
b1100 "#
b1100 8#
b1000 2
b1000 U"
b1000 $#
b100 F
b100 W"
b100 k"
1G
b0 K
b0 O"
b0 =
b0 m"
0>
b1 ?
b1 h"
b10000 6"
b10000 6#
0{
b1100 A"
18
#115001
b0 Y
b0 f"
#115020
1+"
b10000 -"
#115320
0+"
#115330
b10100 D"
#115400
1{
1="
18"
b10000000000000 7"
#120000
08
#125000
08"
b10000000000000 6"
b10000000000000 6#
b0 ?
b0 h"
1>
b100 =
b100 m"
b1000 F
b1000 W"
b1000 k"
b1100 2
b1100 U"
b1100 $#
b10000 )
b10000 "#
b10000 8#
0{
b1101 A"
18
#125020
1+"
b10000000000000 -"
#125320
1!"
b10000000000000 ~
0+"
#125520
b1000000000 P
b0 E"
1%"
b1000000000 #"
0$
1{
1|
#125530
0!"
#130000
08
#135000
b10000 2
b10000 U"
b10000 $#
b1100 F
b1100 W"
b1100 k"
b1000 =
b1000 m"
0{
b1110 A"
b1 E"
18
#135010
1{
#140000
08
#145000
b1100 =
b1100 m"
b10000 F
b10000 W"
b10000 k"
0{
b1111 A"
b10 E"
18
#145010
b110011000000000000000000000000001100100000000000000000000000000 2"
1{
#145030
1$"
b11111111111111111111111111111111 E"
#150000
08
#155000
b10000 =
b10000 m"
0{
b10000 A"
18
#155010
1""
#155020
b1100100000000000000000000000000 z
b1100100000000000000000000000000 J"
#155030
1$
0""
0$"
0|
0%"
#160000
08
#165000
b10000000000100 6"
b10000000000100 6#
0*
b10000000000000 )
b10000000000000 "#
b10000000000000 8#
b1100100000000000000000000000000 +
b1100100000000000000000000000000 L"
b10001 A"
18
#165020
1+"
b10000000000100 -"
#165320
b1100110000000000000000000000000 z
b1100110000000000000000000000000 J"
1!"
b10000000000100 ~
0+"
#165330
0!"
#165460
0~"
0b
#165510
b100000 _
b100000 y"
b110010 F"
#165530
0g
bx c
bx %#
b110010 G"
#170000
08
#175000
0S"
b1100110000000000000000000000000 +
b1100110000000000000000000000000 L"
b10000000000100 )
b10000000000100 "#
b10000000000100 8#
b10000000000000 2
b10000000000000 U"
b10000000000000 $#
0-
b100000 6
b100000 {"
bx 1
bx '#
03
b10000000001000 6"
b10000000001000 6#
b10010 A"
18
#175020
1+"
b10000000001000 -"
#175210
b1 ,"
#175320
b0 z
b0 J"
1!"
b10000000001000 ~
0+"
#175330
0!"
#175510
b100001 _
b100001 y"
b110011 F"
#175530
b110011 G"
#180000
08
#185000
0i"
b10000000001100 6"
b10000000001100 6#
0G
0@
b10000000000000 F
b10000000000000 W"
b10000000000000 k"
b100001 6
b100001 {"
b10000000000100 2
b10000000000100 U"
b10000000000100 $#
b10000000001000 )
b10000000001000 "#
b10000000001000 8#
b0 +
b0 L"
b10011 A"
18
#185020
1+"
b10000000001100 -"
#185200
1S
1V
#185320
1!"
b10000000001100 ~
0+"
#185330
0!"
#185510
b0 _
b0 y"
b0 F"
#185530
bx d
bx (#
1g
0$
x&
1~"
b0 G"
1h
1b
#190000
08
#195000
1S"
b10000000001000 2
b10000000001000 U"
b10000000001000 $#
1-
b0 6
b0 {"
bx 0
bx *#
13
b10000000000100 F
b10000000000100 W"
b10000000000100 k"
1H
1A
b10000000000000 =
b10000000000000 m"
09
0>
b10100 A"
18
#195020
1+"
#195100
0S
0V
#195320
1!"
0+"
#195330
0!"
#195400
1{
1T
b0 7"
18"
#195401
0="
b111111111111111111111111111111111 '"
b111111111111111111111111111111111 ("
#195460
1$
1&
0~"
0b
0h
#195530
b0 d
b0 (#
b0 c
b0 %#
#200000
08
#205000
1i"
1~"
08"
b0 6"
b0 6#
1:
b10000000000100 =
b10000000000100 m"
0A
1G
0H
1@
b10000000001000 F
b10000000001000 W"
b10000000001000 k"
03
b0 0
b0 *#
b0 1
b0 '#
1*
b10000000001100 )
b10000000001100 "#
b10000000001100 8#
0{
b10101 A"
18
#205020
1+"
b0 -"
#205100
0S"
0T
#205320
0+"
#205330
b1000000000000000 ~
1)"
b10100 D"
#205340
1!"
#205540
b100000000000 P
b0 E"
1%"
b100000000000 #"
0$
1{
1|
#205550
0!"
#210000
08
#215000
1S"
0i"
b10000000001100 2
b10000000001100 U"
b10000000001100 $#
13
0G
b10000000001000 =
b10000000001000 m"
19
1>
0:
0{
b10110 A"
b1 E"
18
#215010
1{
#220000
08
#225000
1i"
0>
1G
b10000000001100 F
b10000000001100 W"
b10000000001100 k"
0{
b10111 A"
b10 E"
18
#225010
b101111001100000000000000000001001011100010000000000000000000000010111000010000000000000000000000101110000000000000000000000000 2"
1{
#225030
1$"
b11111111111111111111111111111111 E"
#225410
b100000 D"
#230000
08
#235000
b10000000001100 =
b10000000001100 m"
1>
0{
b11000 A"
18
#235010
1""
#235020
b101110000000000000000000000000 z
b101110000000000000000000000000 J"
#235030
1$
0""
0$"
0|
0%"
#240000
08
#245000
0~"
b100 6"
b100 6#
0*
b0 )
b0 "#
b0 8#
b101110000000000000000000000000 +
b101110000000000000000000000000 L"
b11001 A"
18
#245020
1+"
b100 -"
#245320
0)"
0+"
#245330
b1000000000000100 ~
1)"
b10100 D"
#245340
b101110000100000000000000000000 z
b101110000100000000000000000000 J"
1!"
#245350
0!"
#245510
b10001 _
b10001 y"
b10111 F"
#245530
b10111 G"
#250000
08
#255000
0S"
b101110000100000000000000000000 +
b101110000100000000000000000000 L"
b100 )
b100 "#
b100 8#
b0 2
b0 U"
b0 $#
b10001 6
b10001 {"
03
b1000 6"
b1000 6#
b11010 A"
18
#255020
1+"
b1000 -"
#255320
0)"
0+"
#255330
b1000000000001000 ~
1)"
b10100 D"
#255340
b101110001000000000000000000000 z
b101110001000000000000000000000 J"
1!"
#255350
0!"
#255520
b1 e
b1 +#
#255530
b1000000000000000 d
b1000000000000000 (#
#260000
08
#265000
0i"
b1100 6"
b1100 6#
0G
b0 F
b0 W"
b0 k"
b1000000000000000 0
b1000000000000000 *#
b1 /
b1 X"
b1 -#
b100 2
b100 U"
b100 $#
b1000 )
b1000 "#
b1000 8#
b101110001000000000000000000000 +
b101110001000000000000000000000 L"
b11011 A"
18
#265020
1+"
b1100 -"
#265320
0)"
0+"
#265330
b1000000000001100 ~
1)"
b10100 D"
#265340
b101111001100000000000000000001 z
b101111001100000000000000000001 J"
1!"
#265350
0!"
#265520
b10 e
b10 +#
#265530
b10000000000000000 d
b10000000000000000 (#
#270000
08
#275000
b101111001100000000000000000001 +
b101111001100000000000000000001 L"
b1100 )
b1100 "#
b1100 8#
b1000 2
b1000 U"
b1000 $#
b10 /
b10 X"
b10 -#
b10000000000000000 0
b10000000000000000 *#
b100 F
b100 W"
b100 k"
b1 E
b1 Z"
b1 n"
b0 =
b0 m"
0>
b10000 6"
b10000 6#
b11100 A"
18
#275020
1+"
b10000 -"
#275320
0)"
0+"
#275330
b1000000000010000 ~
1)"
b10100 D"
#275340
1!"
#275410
b100000 D"
#275520
b10011 e
b10011 +#
#275530
b10011000000000000001 d
b10011000000000000001 (#
b1 c
b1 %#
#275540
b100000000001 P
b0 E"
1%"
b100000000001 #"
0$
1{
1|
#275550
0!"
#280000
08
#285000
1~"
b1 <
b1 p"
b100 =
b100 m"
b10 E
b10 Z"
b10 n"
b1000 F
b1000 W"
b1000 k"
b10011000000000000001 0
b10011000000000000001 *#
b1 1
b1 '#
b10011 /
b10011 X"
b10011 -#
b1100 2
b1100 U"
b1100 $#
1*
0{
b11101 A"
b1 E"
18
#285010
1{
#285200
b1 U
b1 ^"
#285410
b100000 D"
#290000
08
#295000
1S"
13
b1100 F
b1100 W"
b1100 k"
b10011 E
b10011 Z"
b10011 n"
b1 C
b1 `"
b1000 =
b1000 m"
b10 <
b10 p"
0{
b11110 A"
b10 E"
18
#295010
b101110011100000010111011100000001011100110000000100111000100000010111001010000001000111111111100101110001100000000000010000000 2"
1{
#295030
1$"
b11111111111111111111111111111111 E"
#295101
b1 [
b1 q"
#295410
b100000 D"
#300000
08
#305000
1i"
b1 ;
b1 s"
b10011 <
b10011 p"
b1100 =
b1100 m"
1G
0{
b11111 A"
18
#305010
1""
#305020
b101110001100000000000010000000 z
b101110001100000000000010000000 J"
#305030
1$
0""
0$"
0|
0%"
#305410
b100000 D"
#310000
08
